temp_bak/waveform.vcd
$timescale
 1s
$end

$scope module parser_test $end
$var reg        1 "    clk $end
$var reg        1 #    rst $end
$var reg        1 $    configure_i $end
$var reg        1 %    start_i $end
$var reg        1 &    end_session_i $end
$var reg        1 '    connected_i $end
$var reg        2 (    connectType_i [1:0] $end
$var reg        8 )    reconnectInt_i [7:0] $end
$var reg       16 *    starttime_i [15:0] $end
$var reg       16 +    endtime_i [15:0] $end
$var reg        6 ,    beginstring_i [5:0] $end
$var reg        6 -    defaultApplVerId_i [5:0] $end
$var reg      256 .    senderCompId_i [255:0] $end
$var reg      256 /    targetCompId_i [255:0] $end
$var reg       16 0    hostAddr_i [15:0] $end
$var reg        8 1    heartBeatInt_i [7:0] $end
$var reg       64 2    sizeSenderId_i [63:0] $end
$var reg       64 3    sizeTargetId_i [63:0] $end
$var reg       64 4    sizeHeartBeat_i [63:0] $end
$var reg        3 5    received_msg_type_i [2:0] $end
$var reg        1 6    connect_o $end
$var reg        1 7    send_message_o $end
$var reg        1 8    disconnect_o $end
$var reg        1 9    ignore_o $end
$var reg        8 :    data_o [7:0] $end

$scope begin unnamed$$_0 $end
$var integer   32 ;    temp [31:0] $end
$var integer   32 <    i [31:0] $end
$upscope $end

$scope module dut $end
$var wire       1 "    clk $end
$var wire       1 #    rst $end
$var wire       1 $    configure_i $end
$var wire       1 %    start_i $end
$var wire       1 &    end_session_i $end
$var wire       1 '    connected_i $end
$var wire       2 (    connectType_i [1:0] $end
$var wire       8 )    reconnectInt_i [7:0] $end
$var wire      16 *    starttime_i [15:0] $end
$var wire      16 +    endtime_i [15:0] $end
$var wire       6 ,    beginstring_i [5:0] $end
$var wire       6 -    defaultApplVerId_i [5:0] $end
$var wire     256 .    senderCompId_i [255:0] $end
$var wire     256 /    targetCompId_i [255:0] $end
$var wire      16 0    hostAddr_i [15:0] $end
$var wire       8 1    heartBeatInt_i [7:0] $end
$var wire      64 2    sizeSenderId_i [63:0] $end
$var wire      64 3    sizeTargetId_i [63:0] $end
$var wire      64 4    sizeHeartBeat_i [63:0] $end
$var wire       3 5    received_msg_type_i [2:0] $end
$var reg        1 6    connect_o $end
$var reg        1 7    send_message_o $end
$var reg        1 8    disconnect_o $end
$var reg        1 9    ignore_o $end
$var reg        8 :    data_o [7:0] $end
$var wire       1 =    configure $end
$var wire     256 >    beginstring [255:0] $end
$var wire     256 ?    sendercompid [255:0] $end
$var wire     256 @    targetcompid [255:0] $end
$var wire     256 A    heartbeat [255:0] $end
$var wire      64 B    sendersize [63:0] $end
$var wire      64 C    targetsize [63:0] $end
$var wire      64 D    heartbeatsize [63:0] $end
$var wire      64 E    valuesize [63:0] $end
$var wire       5 F    tagsize [4:0] $end
$var wire       1 G    tagvalid $end
$var wire       1 H    valuevalid $end
$var wire       1 I    doChecksum $end
$var wire      32 J    tag [31:0] $end
$var wire     256 K    value [255:0] $end
$var wire       3 L    messagetype [2:0] $end
$var wire       1 M    createmessage $end
$var wire       1 N    done $end
$var wire       1 O    endd $end
$var wire       1 P    messagecreated $end
$var parameter  32 Q    VALUE_WIDTH [31:0] $end
$var parameter  32 R    SIZE [31:0] $end
$var parameter  32 S    T_SIZE [31:0] $end

$scope module configure_module $end
$var wire       1 "    clk $end
$var wire       1 =    configure_i $end
$var wire       2 (    connectType_i [1:0] $end
$var wire       8 )    reconnectInt_i [7:0] $end
$var wire      16 *    starttime_i [15:0] $end
$var wire      16 +    endtime_i [15:0] $end
$var wire       6 ,    beginstring_i [5:0] $end
$var wire       6 -    defaultApplVerId_i [5:0] $end
$var wire     256 .    senderCompId_i [255:0] $end
$var wire     256 /    targetCompId_i [255:0] $end
$var wire      16 0    hostAddr_i [15:0] $end
$var wire       8 1    heartBeatInt_i [7:0] $end
$var wire      64 2    sizeSenderId_i [63:0] $end
$var wire      64 3    sizeTargetId_i [63:0] $end
$var wire      64 4    sizeHeartBeat_i [63:0] $end
$var reg        2 T    connectType_o [1:0] $end
$var reg        8 U    reconnectInt_o [7:0] $end
$var reg       16 V    starttime_o [15:0] $end
$var reg       16 W    endtime_o [15:0] $end
$var reg        6 X    beginstring_o [5:0] $end
$var reg        6 Y    defaultApplVerId_o [5:0] $end
$var reg      256 Z    senderCompId_o [255:0] $end
$var reg      256 [    targetCompId_o [255:0] $end
$var reg       16 \    hostAddr_o [15:0] $end
$var reg        8 ]    heartBeatInt_o [7:0] $end
$var reg       64 ^    sizeSenderId_o [63:0] $end
$var reg       64 _    sizeTargetId_o [63:0] $end
$var reg       64 `    sizeHeartBeat_o [63:0] $end
$var parameter  32 a    VALUE_WIDTH [31:0] $end
$var parameter  32 b    SIZE [31:0] $end
$upscope $end

$scope module session_control $end
$var wire       1 "    clk $end
$var wire       1 #    rst $end
$var wire       1 $    configure_i $end
$var wire       1 %    start_i $end
$var wire       1 &    end_session_i $end
$var wire       1 '    connected_i $end
$var wire       1 c    response_received_i $end
$var wire       3 d    packet_status_i [2:0] $end
$var wire       1 e    timeout_i $end
$var wire       1 P    message_created_i $end
$var wire       1 e    new_message_r_i $end
$var wire       1 f    send_b_a_message_i $end
$var wire       3 5    received_msg_type_i [2:0] $end
$var reg        1 g    load_configure_o $end
$var reg        1 6    connect_o $end
$var reg        3 h    create_message_o [2:0] $end
$var reg        1 7    send_message_o $end
$var reg        1 8    disconnect_o $end
$var reg        1 9    ignore_o $end
$var reg        1 i    initiate_msg_o $end
$var reg        8 j    state [7:0] $end
$var reg        8 k    next_state [7:0] $end
$var reg        3 l    mem_state [2:0] $end
$var reg        3 m    logon [2:0] $end
$var reg        3 n    business [2:0] $end
$var reg        3 o    logout [2:0] $end
$var reg        3 p    heartbeat [2:0] $end
$var parameter   8 q    state0 [7:0] $end
$var parameter   8 r    state1 [7:0] $end
$var parameter   8 s    state2 [7:0] $end
$var parameter   8 t    state3 [7:0] $end
$var parameter   8 u    state4 [7:0] $end
$var parameter   8 v    state5 [7:0] $end
$var parameter   8 w    state6 [7:0] $end
$var parameter   8 x    state7 [7:0] $end
$upscope $end

$scope module create_messege_module $end
$var wire       1 "    clk $end
$var wire       1 #    rst $end
$var wire       1 M    start_i $end
$var wire       1 N    done_i $end
$var wire       1 O    end_i $end
$var wire       1 y    bodyLength_r_i $end
$var wire       3 L    message_type_i [2:0] $end
$var wire     256 >    v_beginString_i [255:0] $end
$var wire      64 z    s_v_beginString_i [63:0] $end
$var wire     256 ?    v_senderCompId_i [255:0] $end
$var wire      64 B    s_v_senderCompId_i [63:0] $end
$var wire     256 @    v_targetCompId_i [255:0] $end
$var wire      64 C    s_v_targetCompId_i [63:0] $end
$var wire     256 A    v_heartBeatInt_i [255:0] $end
$var wire      64 D    s_v_heartBeatInt_i [63:0] $end
$var wire     256 {    v_sendTime_i [255:0] $end
$var wire     256 |    v_msgSeqNum_i [255:0] $end
$var wire      64 }    s_v_msgSeqNum_i [63:0] $end
$var reg       32 ~    tag_o [31:0] $end
$var reg        1 !"   tag_valid_o $end
$var reg      256 ""   val_o [255:0] $end
$var reg        1 #"   val_valid_o $end
$var reg       64 $"   v_size_o [63:0] $end
$var reg        5 %"   t_size_o [4:0] $end
$var reg        1 &"   checksum_o $end
$var reg        1 '"   msg_creation_done_o $end
$var reg        3 ("   logon [2:0] $end
$var reg        3 )"   business [2:0] $end
$var reg        3 *"   logout [2:0] $end
$var reg        3 +"   heartbeat [2:0] $end
$var reg      256 ,"   v_encryptMethod_i [255:0] $end
$var reg       64 -"   s_v_encryptMethod_i [63:0] $end
$var reg      256 ."   v_bodyLength_i [255:0] $end
$var reg       64 /"   s_v_bodyLength_i [63:0] $end
$var reg      256 0"   v_beginString [255:0] $end
$var reg        8 1"   t_beginString [7:0] $end
$var reg        8 2"   t_bodyLength [7:0] $end
$var reg       16 3"   t_msgSeqNum [15:0] $end
$var reg       16 4"   t_msgType [15:0] $end
$var reg       16 5"   t_senderCompId [15:0] $end
$var reg       16 6"   t_sendTime [15:0] $end
$var reg       16 7"   t_targetCompId [15:0] $end
$var reg       16 8"   t_encryptMethod [15:0] $end
$var reg       24 9"   t_heartBeatInt [23:0] $end
$var reg       16 :"   t_checksum [15:0] $end
$var reg        5 ;"   s_t_beginString [4:0] $end
$var reg        5 <"   s_t_bodyLength [4:0] $end
$var reg        5 ="   s_t_msgSeqNum [4:0] $end
$var reg        5 >"   s_t_msgType [4:0] $end
$var reg        5 ?"   s_t_checksum [4:0] $end
$var reg        5 @"   s_t_senderCompId [4:0] $end
$var reg        5 A"   s_t_targetCompId [4:0] $end
$var reg        5 B"   s_t_sendTime [4:0] $end
$var reg        5 C"   s_t_heartBeatInt [4:0] $end
$var reg        5 D"   s_t_encryptMethod [4:0] $end
$var reg       21 E"   s_v_sendTime [20:0] $end
$var reg        6 F"   state [5:0] $end
$var reg        6 G"   next_state [5:0] $end
$var reg        8 H"   v_logon [7:0] $end
$var reg        8 I"   v_heartbeat [7:0] $end
$var reg        8 J"   v_logout [7:0] $end
$var reg        1 K"   s_v_logon $end
$var reg        1 L"   s_v_heartbeat $end
$var reg        1 M"   s_v_logout $end
$var parameter  32 N"   VALUE_WIDTH [31:0] $end
$var parameter  32 O"   SIZE [31:0] $end
$var parameter   5 P"   state0 [4:0] $end
$var parameter   6 Q"   state1 [5:0] $end
$var parameter   6 R"   state2 [5:0] $end
$var parameter   6 S"   state3 [5:0] $end
$var parameter   6 T"   state4 [5:0] $end
$var parameter   6 U"   state5 [5:0] $end
$var parameter   6 V"   state6 [5:0] $end
$var parameter   6 W"   state7 [5:0] $end
$var parameter   6 X"   state8 [5:0] $end
$var parameter   6 Y"   state9 [5:0] $end
$var parameter   6 Z"   state10 [5:0] $end
$var parameter   6 ["   state11 [5:0] $end
$var parameter   6 \"   state12 [5:0] $end
$var parameter   6 ]"   state13 [5:0] $end
$var parameter   6 ^"   state14 [5:0] $end
$var parameter   6 _"   state15 [5:0] $end
$var parameter   6 `"   state16 [5:0] $end
$var parameter   6 a"   state17 [5:0] $end
$var parameter   6 b"   state18 [5:0] $end
$var parameter   6 c"   state19 [5:0] $end
$var parameter   6 d"   state20 [5:0] $end
$var parameter   6 e"   state21 [5:0] $end
$var parameter   6 f"   state22 [5:0] $end
$var parameter   6 g"   state23 [5:0] $end
$var parameter   6 h"   state24 [5:0] $end
$var parameter   6 i"   state25 [5:0] $end
$var parameter   6 j"   state26 [5:0] $end
$var parameter   6 k"   state27 [5:0] $end
$var parameter   6 l"   state28 [5:0] $end
$var parameter   6 m"   state29 [5:0] $end
$var parameter   6 n"   state30 [5:0] $end
$var parameter   6 o"   state31 [5:0] $end
$var parameter   6 p"   state32 [5:0] $end
$var parameter   6 q"   state33 [5:0] $end
$var parameter   6 r"   state34 [5:0] $end
$var parameter   6 s"   state35 [5:0] $end
$var parameter   6 t"   state36 [5:0] $end
$var parameter   6 u"   state37 [5:0] $end
$var parameter   6 v"   state38 [5:0] $end

$scope function v_msgType $end
$var reg      256 w"   v_msgType [255:0] $end
$var reg        3 x"   t_type [2:0] $end
$upscope $end

$scope function s_v_msgType $end
$var reg      256 y"   s_v_msgType [255:0] $end
$var reg        3 z"   t_type [2:0] $end
$upscope $end
$upscope $end

$scope module fsm $end
$var wire       1 "    clk $end
$var wire       1 #    rst $end
$var wire       1 G    tag_valid_i $end
$var wire       1 H    val_valid_i $end
$var wire      32 J    tag_i [31:0] $end
$var wire     256 K    val_i [255:0] $end
$var wire       5 F    t_size_i [4:0] $end
$var wire      64 E    v_size_i [63:0] $end
$var wire       1 I    checksum_i $end
$var wire       8 {"   checksum_val_i [7:0] $end
$var reg        8 :    data_o [7:0] $end
$var reg        1 |"   start_chksm_o $end
$var reg        1 }"   done_o $end
$var reg        1 ~"   end_o $end
$var reg        1 !#   end_of_msg_o $end
$var reg       12 "#   state [11:0] $end
$var reg       12 ##   next_state [11:0] $end
$var reg        5 $#   t_width [4:0] $end
$var reg       64 %#   v_width [63:0] $end
$var integer   32 &#   temp_var $end
$var parameter  32 '#   VALUE_WIDTH [31:0] $end
$var parameter  32 (#   T_SIZE [31:0] $end
$var parameter  32 )#   SIZE [31:0] $end
$var parameter  12 *#   state0 [11:0] $end
$var parameter  12 +#   state1 [11:0] $end
$var parameter  12 ,#   state2 [11:0] $end
$var parameter  12 -#   state3 [11:0] $end
$var parameter  12 .#   state4 [11:0] $end
$var parameter  12 /#   state5 [11:0] $end
$var parameter  12 0#   state6 [11:0] $end
$var parameter  12 1#   state7 [11:0] $end
$var parameter  12 2#   state8 [11:0] $end
$var parameter  12 3#   state9 [11:0] $end
$var parameter  12 4#   state10 [11:0] $end
$var parameter  12 5#   state11 [11:0] $end
$upscope $end
$upscope $end
$upscope $end
$enddefinitions $end
#0
$dumpvars
b000001 Q"
b100000000000 5#
b00000000000000000000000001000000 b
bxxxxxx F"
b000000000001 *#
bxxxxxxxxxxxxxxxx W
b00001 ;"
x}"
bxxx L
b0000000000000000000000000000000000000000000000000000000000000000000000000000000000000000000000000000000000000000000000000000000000000000000000000000000000000000000000000000000000000000000000000000000000110010001011100011010000101110010110000100100101000110 0"
b100010 r"
b00000000000000000000000000000000000000000000000000000000000000000000000000000000000000000000000000000000000000000000000000000000000000000000000000000000000000000000000000000000000000000000000000000000000000000000000000000000000000000000000000000000xxxxxxxx A
bxxxxx %"
b010111 g"
x6
b10000000 x
b001100 \"
bxxxxxxxxxxxxxxxx +
b001 m
b111 n
b000010 R"
zc
bxxxxxx G"
b000000000010 +#
bxxxxxx X
b00001 <"
x~"
xM
b00111000 1"
b100011 s"
bxxxxxxxxxxxxxxxxxxxxxxxxxxxxxxxxxxxxxxxxxxxxxxxxxxxxxxxxxxxxxxxx B
x&"
b011000 h"
x7
1y
b001101 ]"
bxxxxxx ,
b001110 ^"
bxxxxxx -
b100 o
b000011 S"
x"
bzzz d
b01100001 H"
b000000000100 ,#
bxxxxxx Y
b00011 ="
x!#
xN
b00111001 2"
b100100 t"
bxxxxxxxxxxxxxxxxxxxxxxxxxxxxxxxxxxxxxxxxxxxxxxxxxxxxxxxxxxxxxxxx C
x'"
b011001 i"
x8
b0000000000000000000000000000000000000000000000000000000001111111 z
b0000000000000000000000000000000000000000000000000000000000000000000000000000000000000000001011100011001100110000001110100011000000110000001110100011000000110000001110100011010100110000001011010011010000110000001101000011000000110011001100010011000000110010 {
b001111 _"
bxxxxxxxxxxxxxxxxxxxxxxxxxxxxxxxxxxxxxxxxxxxxxxxxxxxxxxxxxxxxxxxxxxxxxxxxxxxxxxxxxxxxxxxxxxxxxxxxxxxxxxxxxxxxxxxxxxxxxxxxxxxxxxxxxxxxxxxxxxxxxxxxxxxxxxxxxxxxxxxxxxxxxxxxxxxxxxxxxxxxxxxxxxxxxxxxxxxxxxxxxxxxxxxxxxxxxxxxxxxxxxxxxxxxxxxxxxxxxxxxxxxxxxxxxxxxxxxx .
b010 p
b000100 T"
x#
0e
b00110000 I"
b000000001000 -#
bxxxxxxxxxxxxxxxxxxxxxxxxxxxxxxxxxxxxxxxxxxxxxxxxxxxxxxxxxxxxxxxxxxxxxxxxxxxxxxxxxxxxxxxxxxxxxxxxxxxxxxxxxxxxxxxxxxxxxxxxxxxxxxxxxxxxxxxxxxxxxxxxxxxxxxxxxxxxxxxxxxxxxxxxxxxxxxxxxxxxxxxxxxxxxxxxxxxxxxxxxxxxxxxxxxxxxxxxxxxxxxxxxxxxxxxxxxxxxxxxxxxxxxxxxxxxxxxx Z
b00011 >"
bxxxxxxxxxxxx "#
xO
b0011010000110011 3"
b100101 u"
bxxxxxxxxxxxxxxxxxxxxxxxxxxxxxxxxxxxxxxxxxxxxxxxxxxxxxxxxxxxxxxxx D
b001 ("
b011010 j"
x9
b011011 k"
bxxxxxxxx :
b0000000000000000000000000000000000000000000000000000000000000000000000000000000000000000000000000000000000000000000000000000000000000000000000000000000000000000000000000000000000000000000000000000000000000000000000000000000000000000000000000000000000110000 |
b010000 `"
bxxxxxxxxxxxxxxxxxxxxxxxxxxxxxxxxxxxxxxxxxxxxxxxxxxxxxxxxxxxxxxxxxxxxxxxxxxxxxxxxxxxxxxxxxxxxxxxxxxxxxxxxxxxxxxxxxxxxxxxxxxxxxxxxxxxxxxxxxxxxxxxxxxxxxxxxxxxxxxxxxxxxxxxxxxxxxxxxxxxxxxxxxxxxxxxxxxxxxxxxxxxxxxxxxxxxxxxxxxxxxxxxxxxxxxxxxxxxxxxxxxxxxxxxxxxxxxxx /
b00000001 q
b000101 U"
x$
0f
b00110101 J"
b000000010000 .#
bxxxxxxxxxxxxxxxxxxxxxxxxxxxxxxxxxxxxxxxxxxxxxxxxxxxxxxxxxxxxxxxxxxxxxxxxxxxxxxxxxxxxxxxxxxxxxxxxxxxxxxxxxxxxxxxxxxxxxxxxxxxxxxxxxxxxxxxxxxxxxxxxxxxxxxxxxxxxxxxxxxxxxxxxxxxxxxxxxxxxxxxxxxxxxxxxxxxxxxxxxxxxxxxxxxxxxxxxxxxxxxxxxxxxxxxxxxxxxxxxxxxxxxxxxxxxxxxx [
b00011 ?"
bxxxxxxxxxxxx ##
xP
b0011010100110011 4"
b100110 v"
bxxxxxxxxxxxxxxxxxxxxxxxxxxxxxxxxxxxxxxxxxxxxxxxxxxxxxxxxxxxxxxxx E
b111 )"
b100 *"
b011100 l"
b00000000000000000000000111110100 ;
b0000000000000000000000000000000000000000000000000000000000000001 }
b010001 a"
bxxxxxxxxxxxxxxxx 0
b00000010 r
b000110 V"
x%
xg
1K"
b000000100000 /#
bxxxxxxxxxxxxxxxx \
b00011 @"
bxxxxx $#
b00000000000000000000000100000000 Q
b0011100100110100 5"
bxxxxxxxxxxxxxxxxxxxxxxxxxxxxxxxxxxxxxxxxxxxxxxxxxxxxxxxxxxxxxxxxxxxxxxxxxxxxxxxxxxxxxxxxxxxxxxxxxxxxxxxxxxxxxxxxxxxxxxxxxxxxxxxxxxxxxxxxxxxxxxxxxxxxxxxxxxxxxxxxxxxxxxxxxxxxxxxxxxxxxxxxxxxxxxxxxxxxxxxxxxxxxxxxxxxxxxxxxxxxxxxxxxxxxxxxxxxxxxxxxxxxxxxxxxxxxxxx w"
bxxxxx F
bxxx x"
xG
b010 +"
b011101 m"
b00000000000000000000000000000000 <
bxxxxxxxxxxxxxxxxxxxxxxxxxxxxxxxx ~
b010010 b"
bxxxxxxxx 1
b00000100 s
b000111 W"
x&
bxxx h
1L"
b000001000000 0#
bxxxxxxxx ]
b00011 A"
bxxxxxxxxxxxxxxxxxxxxxxxxxxxxxxxxxxxxxxxxxxxxxxxxxxxxxxxxxxxxxxxx %#
b00000000000000000000000001000000 R
b0011001000110101 6"
b0011011000110101 7"
bxxxxxxxxxxxxxxxxxxxxxxxxxxxxxxxxxxxxxxxxxxxxxxxxxxxxxxxxxxxxxxxxxxxxxxxxxxxxxxxxxxxxxxxxxxxxxxxxxxxxxxxxxxxxxxxxxxxxxxxxxxxxxxxxxxxxxxxxxxxxxxxxxxxxxxxxxxxxxxxxxxxxxxxxxxxxxxxxxxxxxxxxxxxxxxxxxxxxxxxxxxxxxxxxxxxxxxxxxxxxxxxxxxxxxxxxxxxxxxxxxxxxxxxxxxxxxxxx y"
xH
b0000000000000000000000000000000000000000000000000000000000000000000000000000000000000000000000000000000000000000000000000000000000000000000000000000000000000000000000000000000000000000000000000000000000000000000000000000000000000000000000000000000000110000 ,"
b011110 n"
x=
x!"
b010011 c"
bxxxxxxxxxxxxxxxxxxxxxxxxxxxxxxxxxxxxxxxxxxxxxxxxxxxxxxxxxxxxxxxx 2
b00001000 t
b001000 X"
x'
xi
1M"
b000010000000 1#
bxxxxxxxxxxxxxxxxxxxxxxxxxxxxxxxxxxxxxxxxxxxxxxxxxxxxxxxxxxxxxxxx ^
b00011 B"
bxxxxxxxxxxxxxxxxxxxxxxxxxxxxxxxx &#
b00000000000000000000000000000101 S
b00000000000000000000000100000000 '#
bxx T
b0011100000111001 8"
bxxx z"
xI
b0000000000000000000000000000000000000000000000000000000000000001 -"
b011111 o"
b0000000000000000000000000000000000000000000000000000000000000000000000000000000000000000000000000000000000000000000000000000000000000000000000000000000000000000000000000000000000000000000000000000000000000000000000000000000000000000000000000000000000xxxxxx >
bxxxxxxxxxxxxxxxxxxxxxxxxxxxxxxxxxxxxxxxxxxxxxxxxxxxxxxxxxxxxxxxxxxxxxxxxxxxxxxxxxxxxxxxxxxxxxxxxxxxxxxxxxxxxxxxxxxxxxxxxxxxxxxxxxxxxxxxxxxxxxxxxxxxxxxxxxxxxxxxxxxxxxxxxxxxxxxxxxxxxxxxxxxxxxxxxxxxxxxxxxxxxxxxxxxxxxxxxxxxxxxxxxxxxxxxxxxxxxxxxxxxxxxxxxxxxxxxx ""
b010100 d"
bxxxxxxxxxxxxxxxxxxxxxxxxxxxxxxxxxxxxxxxxxxxxxxxxxxxxxxxxxxxxxxxx 3
b00010000 u
b001001 Y"
bxx (
bxxxxxxxx j
b00000000000000000000000100000000 N"
b000100000000 2#
bxxxxxxxxxxxxxxxxxxxxxxxxxxxxxxxxxxxxxxxxxxxxxxxxxxxxxxxxxxxxxxxx _
b00111 C"
b00011 D"
b00000000000000000000000000000101 (#
bxxxxxxxx U
b001110000011000000110001 9"
b00000000 {"
bxxxxxxxxxxxxxxxxxxxxxxxxxxxxxxxx J
b0000000000000000000000000000000000000000000000000000000000000000000000000000000000000000000000000000000000000000000000000000000000000000000000000000000000000000000000000000000000000000000000000000000000000000000000000000000000000000001100010011001000110011 ."
b100000 p"
bxxxxxxxxxxxxxxxxxxxxxxxxxxxxxxxxxxxxxxxxxxxxxxxxxxxxxxxxxxxxxxxxxxxxxxxxxxxxxxxxxxxxxxxxxxxxxxxxxxxxxxxxxxxxxxxxxxxxxxxxxxxxxxxxxxxxxxxxxxxxxxxxxxxxxxxxxxxxxxxxxxxxxxxxxxxxxxxxxxxxxxxxxxxxxxxxxxxxxxxxxxxxxxxxxxxxxxxxxxxxxxxxxxxxxxxxxxxxxxxxxxxxxxxxxxxxxxxx ?
x#"
b010101 e"
bxxxxxxxxxxxxxxxxxxxxxxxxxxxxxxxxxxxxxxxxxxxxxxxxxxxxxxxxxxxxxxxx 4
b00100000 v
b001010 Z"
bxxxxxxxx )
bxxxxxxxx k
b00000000000000000000000001000000 O"
b001000000000 3#
bxxxxxxxxxxxxxxxxxxxxxxxxxxxxxxxxxxxxxxxxxxxxxxxxxxxxxxxxxxxxxxxx `
b010000000000 4#
b00000000000000000000000100000000 a
b111111111111111111111 E"
b00000000000000000000000001000000 )#
bxxxxxxxxxxxxxxxx V
b0011000000110001 :"
x|"
bxxxxxxxxxxxxxxxxxxxxxxxxxxxxxxxxxxxxxxxxxxxxxxxxxxxxxxxxxxxxxxxxxxxxxxxxxxxxxxxxxxxxxxxxxxxxxxxxxxxxxxxxxxxxxxxxxxxxxxxxxxxxxxxxxxxxxxxxxxxxxxxxxxxxxxxxxxxxxxxxxxxxxxxxxxxxxxxxxxxxxxxxxxxxxxxxxxxxxxxxxxxxxxxxxxxxxxxxxxxxxxxxxxxxxxxxxxxxxxxxxxxxxxxxxxxxxxxx K
b0000000000000000000000000000000000000000000000000000000000000111 /"
b100001 q"
bxxxxxxxxxxxxxxxxxxxxxxxxxxxxxxxxxxxxxxxxxxxxxxxxxxxxxxxxxxxxxxxxxxxxxxxxxxxxxxxxxxxxxxxxxxxxxxxxxxxxxxxxxxxxxxxxxxxxxxxxxxxxxxxxxxxxxxxxxxxxxxxxxxxxxxxxxxxxxxxxxxxxxxxxxxxxxxxxxxxxxxxxxxxxxxxxxxxxxxxxxxxxxxxxxxxxxxxxxxxxxxxxxxxxxxxxxxxxxxxxxxxxxxxxxxxxxxxx @
bxxxxxxxxxxxxxxxxxxxxxxxxxxxxxxxxxxxxxxxxxxxxxxxxxxxxxxxxxxxxxxxx $"
b010110 f"
bxxx 5
b01000000 w
b001011 ["
bxxxxxxxxxxxxxxxx *
bxxx l
b00000 P"
$end
#1
0"
#2
b000000 F"
b0000000000000000 W
0}"
b000 L
b0000000000000000000000000000000000000000000000000000000000000000000000000000000000000000000000000000000000000000000000000000000000000000000000000000000000000000000000000000000000000000000000000000000000000000000000000000000000000000000000000000000000000000 A
b00000 %"
06
b000000 G"
b000000 X
0~"
0M
b0000000000000000000000000000000000000000000000000000000000000000 B
0&"
07
b000000 Y
0!#
0N
b0000000000000000000000000000000000000000000000000000000000000000 C
0'"
08
1#
b0000000000000000000000000000000000000000000000000000000000000000000000000000000000000000000000000000000000000000000000000000000000000000000000000000000000000000000000000000000000000000000000000000000000000000000000000000000000000000000000000000000000000000 Z
b000000000001 "#
0O
09
b00000000 :
0$
b0000000000000000000000000000000000000000000000000000000000000000000000000000000000000000000000000000000000000000000000000000000000000000000000000000000000000000000000000000000000000000000000000000000000000000000000000000000000000000000000000000000000000000 [
b000000000001 ##
0P
b0000000000000000000000000000000000000000000000000000000000000000 E
0%
0g
b0000000000000000 \
b00000 F
0G
b00000000000000000000000000000000 ~
b000 h
b00000000 ]
0H
0=
0!"
0i
b0000000000000000000000000000000000000000000000000000000000000000 ^
b00000000000000000000000000000000 &#
b00 T
0I
b0000000000000000000000000000000000000000000000000000000000000000000000000000000000000000000000000000000000000000000000000000000000000000000000000000000000000000000000000000000000000000000000000000000000000000000000000000000000000000000000000000000000000000 >
b0000000000000000000000000000000000000000000000000000000000000000000000000000000000000000000000000000000000000000000000000000000000000000000000000000000000000000000000000000000000000000000000000000000000000000000000000000000000000000000000000000000000000000 ""
b00000001 j
b0000000000000000000000000000000000000000000000000000000000000000 _
b00000000 U
b00000000000000000000000000000000 J
b0000000000000000000000000000000000000000000000000000000000000000000000000000000000000000000000000000000000000000000000000000000000000000000000000000000000000000000000000000000000000000000000000000000000000000000000000000000000000000000000000000000000000000 ?
0#"
b00000001 k
b0000000000000000 V
0|"
b0000000000000000000000000000000000000000000000000000000000000000000000000000000000000000000000000000000000000000000000000000000000000000000000000000000000000000000000000000000000000000000000000000000000000000000000000000000000000000000000000000000000000000 K
b0000000000000000000000000000000000000000000000000000000000000000000000000000000000000000000000000000000000000000000000000000000000000000000000000000000000000000000000000000000000000000000000000000000000000000000000000000000000000000000000000000000000000000 @
b0000000000000000000000000000000000000000000000000000000000000000 $"
b000 l
1"
#3
0"
#4
0#
1%
1"
#5
0"
#6
0%
1"
#7
0"
#8
b1111111111111111 +
b100100 ,
b100100 -
b0000000000000000000000000000000000000000000000000000000000000000000000000000000000000000000000000000000000000000000000000000000000000000000000000000000000000000000000000000000000000000000000000000000000000000011000110110110001101001011001010110111001110100 .
b0000000000000000000000000000000000000000000000000000000000000000000000000000000000000000000000000000000000000000000000000000000000000000000000000000000000000000000000000000000001101111011100100110010001100101011100100110110101100001011101000110001101101000 /
b0000000000001111 0
b00110001 1
b0000000000000000000000000000000000000000000000000000000000111111 2
b0000000000000000000000000000000000000000000000000000001111111111 3
b01 (
b0000000000000000000000000000000000000000000000000000000000000001 4
b01110111 )
b1111111111111111 *
1$
1g
1=
b00000010 k
1"
#9
0"
#10
b0000000000000000000000000000000000000000000000000000000000000001 D
b0000000000000000000000000000000000000000000000000000000000000001 `
b1111111111111111 W
b0000000000000000000000000000000000000000000000000000000000000000000000000000000000000000000000000000000000000000000000000000000000000000000000000000000000000000000000000000000000000000000000000000000000000000000000000000000000000000000000000000000000110001 A
b100100 X
b0000000000000000000000000000000000000000000000000000000000111111 B
b100100 Y
b0000000000000000000000000000000000000000000000000000001111111111 C
b0000000000000000000000000000000000000000000000000000000000000000000000000000000000000000000000000000000000000000000000000000000000000000000000000000000000000000000000000000000000000000000000000000000000000000011000110110110001101001011001010110111001110100 Z
b0000000000000000000000000000000000000000000000000000000000000000000000000000000000000000000000000000000000000000000000000000000000000000000000000000000000000000000000000000000001101111011100100110010001100101011100100110110101100001011101000110001101101000 [
b0000000000001111 \
b00110001 ]
b0000000000000000000000000000000000000000000000000000000000111111 ^
b01 T
b0000000000000000000000000000000000000000000000000000000000000000000000000000000000000000000000000000000000000000000000000000000000000000000000000000000000000000000000000000000000000000000000000000000000000000000000000000000000000000000000000000000000100100 >
b00000010 j
b0000000000000000000000000000000000000000000000000000001111111111 _
b01110111 U
b0000000000000000000000000000000000000000000000000000000000000000000000000000000000000000000000000000000000000000000000000000000000000000000000000000000000000000000000000000000000000000000000000000000000000000011000110110110001101001011001010110111001110100 ?
b1111111111111111 V
b0000000000000000000000000000000000000000000000000000000000000000000000000000000000000000000000000000000000000000000000000000000000000000000000000000000000000000000000000000000001101111011100100110010001100101011100100110110101100001011101000110001101101000 @
0$
b00000010 k
1"
#11
0"
#12
16
1%
b00000100 k
1"
#13
0"
#14
b00000100 j
0%
b00000100 k
1"
#15
0"
#16
b00000 $#
1'
b001 L
b00001 %"
b000001 G"
1M
b00111000 :
b000000000010 ##
b00001 F
1G
b00000000000000000000000000111000 ~
b001 h
1!"
1i
b00000000000000000000000000000001 &#
b00000000000000000000000000111000 J
b001 l
b00001000 k
1"
#17
0"
#18
b000001 F"
1}"
1N
b000000000010 "#
b0000000000000000000000000000000000000000000000000000000001111111 E
b0000000000000000000000000000000000000000000000000000000000000000000000000000000000000000000000000000000000000000000000000000000000000000000000000000000000000000000000000000000000000000000000000000000000110010001011100011010000101110010110000100100101000110 ""
1|"
b0000000000000000000000000000000000000000000000000000000000000000000000000000000000000000000000000000000000000000000000000000000000000000000000000000000000000000000000000000000000000000000000000000000000110010001011100011010000101110010110000100100101000110 K
b0000000000000000000000000000000000000000000000000000000001111111 $"
b00001000 j
b010100 G"
0M
b00111101 :
b000000001000 ##
0G
b00000000000000000000000000000000 ~
0!"
0i
b00000000000000000000000000000000 &#
b00000000000000000000000000000000 J
1"
#19
0"
