temp.cp/waveform.vcd
$timescale
 1s
$end

$scope module parser_test $end
$var reg        1 "    clk $end
$var reg        1 #    rst $end
$var reg        1 $    configure_i $end
$var reg        1 %    start_i $end
$var reg        1 &    end_session_i $end
$var reg        1 '    connected_i $end
$var reg        2 (    connectType_i [1:0] $end
$var reg        8 )    reconnectInt_i [7:0] $end
$var reg       16 *    starttime_i [15:0] $end
$var reg       16 +    endtime_i [15:0] $end
$var reg        6 ,    beginstring_i [5:0] $end
$var reg        6 -    defaultApplVerId_i [5:0] $end
$var reg      256 .    senderCompId_i [255:0] $end
$var reg      256 /    targetCompId_i [255:0] $end
$var reg       16 0    hostAddr_i [15:0] $end
$var reg        8 1    heartBeatInt_i [7:0] $end
$var reg       64 2    sizeSenderId_i [63:0] $end
$var reg       64 3    sizeTargetId_i [63:0] $end
$var reg       64 4    sizeHeartBeat_i [63:0] $end
$var reg        1 5    response_received_i $end
$var reg        3 6    packet_status_i [2:0] $end
$var reg        3 7    received_msg_type_i [2:0] $end
$var reg        1 8    new_message_r_i $end
$var reg        1 9    connect_o $end
$var reg        1 :    send_message_o $end
$var reg        1 ;    disconnect_o $end
$var reg        1 <    ignore_o $end
$var reg        8 =    data_o [7:0] $end

$scope begin unnamed$$_0 $end
$var integer   32 >    temp [31:0] $end
$var integer   32 ?    i [31:0] $end

$scope begin unnamed$$_1 $end
$upscope $end
$upscope $end

$scope module dut $end
$var wire       1 "    clk $end
$var wire       1 #    rst $end
$var wire       1 $    configure_i $end
$var wire       1 %    start_i $end
$var wire       1 &    end_session_i $end
$var wire       1 '    connected_i $end
$var wire       2 (    connectType_i [1:0] $end
$var wire       8 )    reconnectInt_i [7:0] $end
$var wire      16 *    starttime_i [15:0] $end
$var wire      16 +    endtime_i [15:0] $end
$var wire       6 ,    beginstring_i [5:0] $end
$var wire       6 -    defaultApplVerId_i [5:0] $end
$var wire     256 .    senderCompId_i [255:0] $end
$var wire     256 /    targetCompId_i [255:0] $end
$var wire      16 0    hostAddr_i [15:0] $end
$var wire       8 1    heartBeatInt_i [7:0] $end
$var wire      64 2    sizeSenderId_i [63:0] $end
$var wire      64 3    sizeTargetId_i [63:0] $end
$var wire      64 4    sizeHeartBeat_i [63:0] $end
$var wire       1 5    response_received_i $end
$var wire       3 6    packet_status_i [2:0] $end
$var wire       3 7    received_msg_type_i [2:0] $end
$var wire       1 8    new_message_r_i $end
$var reg        1 9    connect_o $end
$var reg        1 :    send_message_o $end
$var reg        1 ;    disconnect_o $end
$var reg        1 <    ignore_o $end
$var reg        8 =    data_o [7:0] $end
$var wire       1 @    configure $end
$var wire     256 A    beginstring [255:0] $end
$var wire     256 B    sendercompid [255:0] $end
$var wire     256 C    targetcompid [255:0] $end
$var wire     256 D    heartbeat [255:0] $end
$var wire      64 E    sendersize [63:0] $end
$var wire      64 F    targetsize [63:0] $end
$var wire      64 G    heartbeatsize [63:0] $end
$var wire      64 H    valuesize [63:0] $end
$var wire       5 I    tagsize [4:0] $end
$var wire       1 J    tagvalid $end
$var wire       1 K    valuevalid $end
$var wire       1 L    doChecksum $end
$var wire      32 M    tag [31:0] $end
$var wire     256 N    value [255:0] $end
$var wire       3 O    messagetype [2:0] $end
$var wire       1 P    createmessage $end
$var wire       1 Q    done $end
$var wire       1 R    endd $end
$var wire       1 S    messagecreated $end
$var parameter  32 T    VALUE_WIDTH [31:0] $end
$var parameter  32 U    SIZE [31:0] $end
$var parameter  32 V    T_SIZE [31:0] $end

$scope module configure_module $end
$var wire       1 "    clk $end
$var wire       1 @    configure_i $end
$var wire       2 (    connectType_i [1:0] $end
$var wire       8 )    reconnectInt_i [7:0] $end
$var wire      16 *    starttime_i [15:0] $end
$var wire      16 +    endtime_i [15:0] $end
$var wire       6 ,    beginstring_i [5:0] $end
$var wire       6 -    defaultApplVerId_i [5:0] $end
$var wire     256 .    senderCompId_i [255:0] $end
$var wire     256 /    targetCompId_i [255:0] $end
$var wire      16 0    hostAddr_i [15:0] $end
$var wire       8 1    heartBeatInt_i [7:0] $end
$var wire      64 2    sizeSenderId_i [63:0] $end
$var wire      64 3    sizeTargetId_i [63:0] $end
$var wire      64 4    sizeHeartBeat_i [63:0] $end
$var reg        2 W    connectType_o [1:0] $end
$var reg        8 X    reconnectInt_o [7:0] $end
$var reg       16 Y    starttime_o [15:0] $end
$var reg       16 Z    endtime_o [15:0] $end
$var reg        6 [    beginstring_o [5:0] $end
$var reg        6 \    defaultApplVerId_o [5:0] $end
$var reg      256 ]    senderCompId_o [255:0] $end
$var reg      256 ^    targetCompId_o [255:0] $end
$var reg       16 _    hostAddr_o [15:0] $end
$var reg        8 `    heartBeatInt_o [7:0] $end
$var reg       64 a    sizeSenderId_o [63:0] $end
$var reg       64 b    sizeTargetId_o [63:0] $end
$var reg       64 c    sizeHeartBeat_o [63:0] $end
$var parameter  32 d    VALUE_WIDTH [31:0] $end
$var parameter  32 e    SIZE [31:0] $end
$upscope $end

$scope module session_control $end
$var wire       1 "    clk $end
$var wire       1 #    rst $end
$var wire       1 $    configure_i $end
$var wire       1 %    start_i $end
$var wire       1 &    end_session_i $end
$var wire       1 '    connected_i $end
$var wire       1 5    response_received_i $end
$var wire       3 6    packet_status_i [2:0] $end
$var wire       1 f    timeout_i $end
$var wire       1 S    message_created_i $end
$var wire       1 8    new_message_r_i $end
$var wire       1 g    send_b_a_message_i $end
$var wire       3 7    received_msg_type_i [2:0] $end
$var reg        1 h    load_configure_o $end
$var reg        1 9    connect_o $end
$var reg        3 i    create_message_o [2:0] $end
$var reg        1 :    send_message_o $end
$var reg        1 ;    disconnect_o $end
$var reg        1 <    ignore_o $end
$var reg        1 j    initiate_msg_o $end
$var reg        8 k    state [7:0] $end
$var reg        8 l    next_state [7:0] $end
$var reg        3 m    mem_state [2:0] $end
$var reg        3 n    logon [2:0] $end
$var reg        3 o    business [2:0] $end
$var reg        3 p    logout [2:0] $end
$var reg        3 q    heartbeat [2:0] $end
$var parameter   8 r    state0 [7:0] $end
$var parameter   8 s    state1 [7:0] $end
$var parameter   8 t    state2 [7:0] $end
$var parameter   8 u    state3 [7:0] $end
$var parameter   8 v    state4 [7:0] $end
$var parameter   8 w    state5 [7:0] $end
$var parameter   8 x    state6 [7:0] $end
$var parameter   8 y    state7 [7:0] $end
$upscope $end

$scope module create_messege_module $end
$var wire       1 "    clk $end
$var wire       1 #    rst $end
$var wire       1 P    start_i $end
$var wire       1 Q    done_i $end
$var wire       1 R    end_i $end
$var wire       1 z    bodyLength_r_i $end
$var wire       3 O    message_type_i [2:0] $end
$var wire     256 A    v_beginString_i [255:0] $end
$var wire      64 {    s_v_beginString_i [63:0] $end
$var wire     256 B    v_senderCompId_i [255:0] $end
$var wire      64 E    s_v_senderCompId_i [63:0] $end
$var wire     256 C    v_targetCompId_i [255:0] $end
$var wire      64 F    s_v_targetCompId_i [63:0] $end
$var wire     256 D    v_heartBeatInt_i [255:0] $end
$var wire      64 G    s_v_heartBeatInt_i [63:0] $end
$var wire     256 |    v_sendTime_i [255:0] $end
$var wire     256 }    v_msgSeqNum_i [255:0] $end
$var wire      64 ~    s_v_msgSeqNum_i [63:0] $end
$var reg       32 !"   tag_o [31:0] $end
$var reg        1 ""   tag_valid_o $end
$var reg      256 #"   val_o [255:0] $end
$var reg        1 $"   val_valid_o $end
$var reg       64 %"   v_size_o [63:0] $end
$var reg        5 &"   t_size_o [4:0] $end
$var reg        1 '"   checksum_o $end
$var reg        1 ("   msg_creation_done_o $end
$var reg        3 )"   logon [2:0] $end
$var reg        3 *"   business [2:0] $end
$var reg        3 +"   logout [2:0] $end
$var reg        3 ,"   heartbeat [2:0] $end
$var reg      256 -"   v_encryptMethod_i [255:0] $end
$var reg       64 ."   s_v_encryptMethod_i [63:0] $end
$var reg      256 /"   v_bodyLength_i [255:0] $end
$var reg       64 0"   s_v_bodyLength_i [63:0] $end
$var reg      256 1"   v_beginString [255:0] $end
$var reg        8 2"   t_beginString [7:0] $end
$var reg        8 3"   t_bodyLength [7:0] $end
$var reg       16 4"   t_msgSeqNum [15:0] $end
$var reg       16 5"   t_msgType [15:0] $end
$var reg       16 6"   t_senderCompId [15:0] $end
$var reg       16 7"   t_sendTime [15:0] $end
$var reg       16 8"   t_targetCompId [15:0] $end
$var reg       16 9"   t_encryptMethod [15:0] $end
$var reg       24 :"   t_heartBeatInt [23:0] $end
$var reg       16 ;"   t_checksum [15:0] $end
$var reg        5 <"   s_t_beginString [4:0] $end
$var reg        5 ="   s_t_bodyLength [4:0] $end
$var reg        5 >"   s_t_msgSeqNum [4:0] $end
$var reg        5 ?"   s_t_msgType [4:0] $end
$var reg        5 @"   s_t_checksum [4:0] $end
$var reg        5 A"   s_t_senderCompId [4:0] $end
$var reg        5 B"   s_t_targetCompId [4:0] $end
$var reg        5 C"   s_t_sendTime [4:0] $end
$var reg        5 D"   s_t_heartBeatInt [4:0] $end
$var reg        5 E"   s_t_encryptMethod [4:0] $end
$var reg       21 F"   s_v_sendTime [20:0] $end
$var reg        6 G"   state [5:0] $end
$var reg        6 H"   next_state [5:0] $end
$var reg        8 I"   v_logon [7:0] $end
$var reg        8 J"   v_heartbeat [7:0] $end
$var reg        8 K"   v_logout [7:0] $end
$var reg        1 L"   s_v_logon $end
$var reg        1 M"   s_v_heartbeat $end
$var reg        1 N"   s_v_logout $end
$var parameter  32 O"   VALUE_WIDTH [31:0] $end
$var parameter  32 P"   SIZE [31:0] $end
$var parameter   5 Q"   state0 [4:0] $end
$var parameter   6 R"   state1 [5:0] $end
$var parameter   6 S"   state2 [5:0] $end
$var parameter   6 T"   state3 [5:0] $end
$var parameter   6 U"   state4 [5:0] $end
$var parameter   6 V"   state5 [5:0] $end
$var parameter   6 W"   state6 [5:0] $end
$var parameter   6 X"   state7 [5:0] $end
$var parameter   6 Y"   state8 [5:0] $end
$var parameter   6 Z"   state9 [5:0] $end
$var parameter   6 ["   state10 [5:0] $end
$var parameter   6 \"   state11 [5:0] $end
$var parameter   6 ]"   state12 [5:0] $end
$var parameter   6 ^"   state13 [5:0] $end
$var parameter   6 _"   state14 [5:0] $end
$var parameter   6 `"   state15 [5:0] $end
$var parameter   6 a"   state16 [5:0] $end
$var parameter   6 b"   state17 [5:0] $end
$var parameter   6 c"   state18 [5:0] $end
$var parameter   6 d"   state19 [5:0] $end
$var parameter   6 e"   state20 [5:0] $end
$var parameter   6 f"   state21 [5:0] $end
$var parameter   6 g"   state22 [5:0] $end
$var parameter   6 h"   state23 [5:0] $end
$var parameter   6 i"   state24 [5:0] $end
$var parameter   6 j"   state25 [5:0] $end
$var parameter   6 k"   state26 [5:0] $end
$var parameter   6 l"   state27 [5:0] $end
$var parameter   6 m"   state28 [5:0] $end
$var parameter   6 n"   state29 [5:0] $end
$var parameter   6 o"   state30 [5:0] $end
$var parameter   6 p"   state31 [5:0] $end
$var parameter   6 q"   state32 [5:0] $end
$var parameter   6 r"   state33 [5:0] $end
$var parameter   6 s"   state34 [5:0] $end
$var parameter   6 t"   state35 [5:0] $end
$var parameter   6 u"   state36 [5:0] $end
$var parameter   6 v"   state37 [5:0] $end
$var parameter   6 w"   state38 [5:0] $end

$scope function v_msgType $end
$var reg      256 x"   v_msgType [255:0] $end
$var reg        3 y"   t_type [2:0] $end
$upscope $end

$scope function s_v_msgType $end
$var reg      256 z"   s_v_msgType [255:0] $end
$var reg        3 {"   t_type [2:0] $end
$upscope $end
$upscope $end

$scope module fsm $end
$var wire       1 "    clk $end
$var wire       1 #    rst $end
$var wire       1 J    tag_valid_i $end
$var wire       1 K    val_valid_i $end
$var wire      32 M    tag_i [31:0] $end
$var wire     256 N    val_i [255:0] $end
$var wire       5 I    t_size_i [4:0] $end
$var wire      64 H    v_size_i [63:0] $end
$var wire       1 L    checksum_i $end
$var wire       8 |"   checksum_val_i [7:0] $end
$var reg        8 =    data_o [7:0] $end
$var reg        1 }"   start_chksm_o $end
$var reg        1 ~"   done_o $end
$var reg        1 !#   end_o $end
$var reg        1 "#   end_of_msg_o $end
$var reg       12 ##   state [11:0] $end
$var reg       12 $#   next_state [11:0] $end
$var reg        5 %#   t_width [4:0] $end
$var reg       64 &#   v_width [63:0] $end
$var integer   32 '#   temp_var $end
$var parameter  32 (#   VALUE_WIDTH [31:0] $end
$var parameter  32 )#   T_SIZE [31:0] $end
$var parameter  32 *#   SIZE [31:0] $end
$var parameter  12 +#   state0 [11:0] $end
$var parameter  12 ,#   state1 [11:0] $end
$var parameter  12 -#   state2 [11:0] $end
$var parameter  12 .#   state3 [11:0] $end
$var parameter  12 /#   state4 [11:0] $end
$var parameter  12 0#   state5 [11:0] $end
$var parameter  12 1#   state6 [11:0] $end
$var parameter  12 2#   state7 [11:0] $end
$var parameter  12 3#   state8 [11:0] $end
$var parameter  12 4#   state9 [11:0] $end
$var parameter  12 5#   state10 [11:0] $end
$var parameter  12 6#   state11 [11:0] $end
$upscope $end
$upscope $end
$upscope $end
$enddefinitions $end
#0
$dumpvars
b00000 Q"
b010000000000 5#
bxxxxxxxxxxxxxxxxxxxxxxxxxxxxxxxxxxxxxxxxxxxxxxxxxxxxxxxxxxxxxxxx b
b111111111111111111111 F"
b00000000000000000000000001000000 *#
bxx W
b0011000000110001 ;"
x}"
xL
b0000000000000000000000000000000000000000000000000000000000000111 0"
b100001 r"
b0000000000000000000000000000000000000000000000000000000000000000000000000000000000000000000000000000000000000000000000000000000000000000000000000000000000000000000000000000000000000000000000000000000000000000000000000000000000000000000000000000000000xxxxxx A
bxxxxxxxxxxxxxxxxxxxxxxxxxxxxxxxxxxxxxxxxxxxxxxxxxxxxxxxxxxxxxxxx %"
b010110 g"
bxxx 6
b01000000 x
b001011 \"
bxxxxxxxxxxxxxxxx +
bxxx m
b001 n
b000001 R"
b100000000000 6#
bxxxxxxxxxxxxxxxxxxxxxxxxxxxxxxxxxxxxxxxxxxxxxxxxxxxxxxxxxxxxxxxx c
bxxxxxx G"
b000000000001 +#
bxxxxxxxx X
b00001 <"
x~"
bxxxxxxxxxxxxxxxxxxxxxxxxxxxxxxxx M
b0000000000000000000000000000000000000000000000000000000000000000000000000000000000000000000000000000000000000000000000000000000000000000000000000000000000000000000000000000000000000000000000000000000000110010001011100011010000101110010110000100100101000110 1"
b100010 s"
bxxxxxxxxxxxxxxxxxxxxxxxxxxxxxxxxxxxxxxxxxxxxxxxxxxxxxxxxxxxxxxxxxxxxxxxxxxxxxxxxxxxxxxxxxxxxxxxxxxxxxxxxxxxxxxxxxxxxxxxxxxxxxxxxxxxxxxxxxxxxxxxxxxxxxxxxxxxxxxxxxxxxxxxxxxxxxxxxxxxxxxxxxxxxxxxxxxxxxxxxxxxxxxxxxxxxxxxxxxxxxxxxxxxxxxxxxxxxxxxxxxxxxxxxxxxxxxxx B
bxxxxx &"
b010111 h"
bxxx 7
b10000000 y
b001100 ]"
bxxxxxx ,
b001101 ^"
bxxxxxx -
b111 o
b000010 S"
x"
b00000000000000000000000100000000 d
bxxxxxx H"
b000000000010 ,#
bxxxxxxxxxxxxxxxx Y
b00001 ="
x!#
bxxxxxxxxxxxxxxxxxxxxxxxxxxxxxxxxxxxxxxxxxxxxxxxxxxxxxxxxxxxxxxxxxxxxxxxxxxxxxxxxxxxxxxxxxxxxxxxxxxxxxxxxxxxxxxxxxxxxxxxxxxxxxxxxxxxxxxxxxxxxxxxxxxxxxxxxxxxxxxxxxxxxxxxxxxxxxxxxxxxxxxxxxxxxxxxxxxxxxxxxxxxxxxxxxxxxxxxxxxxxxxxxxxxxxxxxxxxxxxxxxxxxxxxxxxxxxxxx N
b00111000 2"
b100011 t"
bxxxxxxxxxxxxxxxxxxxxxxxxxxxxxxxxxxxxxxxxxxxxxxxxxxxxxxxxxxxxxxxxxxxxxxxxxxxxxxxxxxxxxxxxxxxxxxxxxxxxxxxxxxxxxxxxxxxxxxxxxxxxxxxxxxxxxxxxxxxxxxxxxxxxxxxxxxxxxxxxxxxxxxxxxxxxxxxxxxxxxxxxxxxxxxxxxxxxxxxxxxxxxxxxxxxxxxxxxxxxxxxxxxxxxxxxxxxxxxxxxxxxxxxxxxxxxxxx C
x'"
b011000 i"
x8
1z
b0000000000000000000000000000000000000000000000000000000001111111 {
b001110 _"
bxxxxxxxxxxxxxxxxxxxxxxxxxxxxxxxxxxxxxxxxxxxxxxxxxxxxxxxxxxxxxxxxxxxxxxxxxxxxxxxxxxxxxxxxxxxxxxxxxxxxxxxxxxxxxxxxxxxxxxxxxxxxxxxxxxxxxxxxxxxxxxxxxxxxxxxxxxxxxxxxxxxxxxxxxxxxxxxxxxxxxxxxxxxxxxxxxxxxxxxxxxxxxxxxxxxxxxxxxxxxxxxxxxxxxxxxxxxxxxxxxxxxxxxxxxxxxxxx .
b100 p
b000011 T"
x#
b00000000000000000000000001000000 e
b01100001 I"
b000000000100 -#
bxxxxxxxxxxxxxxxx Z
b00011 >"
x"#
bxxx O
b00111001 3"
b100100 u"
b00000000000000000000000000000000000000000000000000000000000000000000000000000000000000000000000000000000000000000000000000000000000000000000000000000000000000000000000000000000000000000000000000000000000000000000000000000000000000000000000000000000xxxxxxxx D
x("
b011001 j"
x9
b011010 k"
x:
b0000000000000000000000000000000000000000000000000000000000000000000000000000000000000000001011100011001100110000001110100011000000110000001110100011000000110000001110100011010100110000001011010011010000110000001101000011000000110011001100010011000000110010 |
b001111 `"
bxxxxxxxxxxxxxxxxxxxxxxxxxxxxxxxxxxxxxxxxxxxxxxxxxxxxxxxxxxxxxxxxxxxxxxxxxxxxxxxxxxxxxxxxxxxxxxxxxxxxxxxxxxxxxxxxxxxxxxxxxxxxxxxxxxxxxxxxxxxxxxxxxxxxxxxxxxxxxxxxxxxxxxxxxxxxxxxxxxxxxxxxxxxxxxxxxxxxxxxxxxxxxxxxxxxxxxxxxxxxxxxxxxxxxxxxxxxxxxxxxxxxxxxxxxxxxxxx /
b010 q
b000100 U"
x$
0f
b00110000 J"
b000000001000 .#
bxxxxxx [
b00011 ?"
bxxxxxxxxxxxx ##
xP
b0011010000110011 4"
b100101 v"
bxxxxxxxxxxxxxxxxxxxxxxxxxxxxxxxxxxxxxxxxxxxxxxxxxxxxxxxxxxxxxxxx E
b001 )"
b111 *"
b011011 l"
x;
b0000000000000000000000000000000000000000000000000000000000000000000000000000000000000000000000000000000000000000000000000000000000000000000000000000000000000000000000000000000000000000000000000000000000000000000000000000000000000000000000000000000000110000 }
b010000 a"
bxxxxxxxxxxxxxxxx 0
b00000001 r
b000101 V"
x%
0g
b00110101 K"
b000000010000 /#
bxxxxxx \
b00011 @"
bxxxxxxxxxxxx $#
xQ
b0011010100110011 5"
b100110 w"
bxxxxxxxxxxxxxxxxxxxxxxxxxxxxxxxxxxxxxxxxxxxxxxxxxxxxxxxxxxxxxxxx F
bxxxxxxxxxxxxxxxxxxxxxxxxxxxxxxxxxxxxxxxxxxxxxxxxxxxxxxxxxxxxxxxxxxxxxxxxxxxxxxxxxxxxxxxxxxxxxxxxxxxxxxxxxxxxxxxxxxxxxxxxxxxxxxxxxxxxxxxxxxxxxxxxxxxxxxxxxxxxxxxxxxxxxxxxxxxxxxxxxxxxxxxxxxxxxxxxxxxxxxxxxxxxxxxxxxxxxxxxxxxxxxxxxxxxxxxxxxxxxxxxxxxxxxxxxxxxxxxx x"
bxxxxxxxxxxxxxxxxxxxxxxxxxxxxxxxxxxxxxxxxxxxxxxxxxxxxxxxxxxxxxxxx G
b100 +"
b011100 m"
x<
b0000000000000000000000000000000000000000000000000000000000000001 ~
b010001 b"
bxxxxxxxx 1
b00000010 s
b000110 W"
x&
xh
1L"
b000000100000 0#
bxxxxxxxxxxxxxxxxxxxxxxxxxxxxxxxxxxxxxxxxxxxxxxxxxxxxxxxxxxxxxxxxxxxxxxxxxxxxxxxxxxxxxxxxxxxxxxxxxxxxxxxxxxxxxxxxxxxxxxxxxxxxxxxxxxxxxxxxxxxxxxxxxxxxxxxxxxxxxxxxxxxxxxxxxxxxxxxxxxxxxxxxxxxxxxxxxxxxxxxxxxxxxxxxxxxxxxxxxxxxxxxxxxxxxxxxxxxxxxxxxxxxxxxxxxxxxxxx ]
b00011 A"
bxxxxx %#
xR
b0011100100110100 6"
b0011001000110101 7"
bxxx y"
bxxxxxxxxxxxxxxxxxxxxxxxxxxxxxxxxxxxxxxxxxxxxxxxxxxxxxxxxxxxxxxxx H
b010 ,"
b011101 n"
bxxxxxxxx =
bxxxxxxxxxxxxxxxxxxxxxxxxxxxxxxxx !"
b010010 c"
bxxxxxxxxxxxxxxxxxxxxxxxxxxxxxxxxxxxxxxxxxxxxxxxxxxxxxxxxxxxxxxxx 2
b00000100 t
b000111 X"
x'
bxxx i
1M"
b000001000000 1#
bxxxxxxxxxxxxxxxxxxxxxxxxxxxxxxxxxxxxxxxxxxxxxxxxxxxxxxxxxxxxxxxxxxxxxxxxxxxxxxxxxxxxxxxxxxxxxxxxxxxxxxxxxxxxxxxxxxxxxxxxxxxxxxxxxxxxxxxxxxxxxxxxxxxxxxxxxxxxxxxxxxxxxxxxxxxxxxxxxxxxxxxxxxxxxxxxxxxxxxxxxxxxxxxxxxxxxxxxxxxxxxxxxxxxxxxxxxxxxxxxxxxxxxxxxxxxxxxx ^
b00011 B"
bxxxxxxxxxxxxxxxxxxxxxxxxxxxxxxxxxxxxxxxxxxxxxxxxxxxxxxxxxxxxxxxx &#
xS
bxxxxxxxxxxxxxxxxxxxxxxxxxxxxxxxx '#
b00000000000000000000000100000000 T
b0011011000110101 8"
bxxxxxxxxxxxxxxxxxxxxxxxxxxxxxxxxxxxxxxxxxxxxxxxxxxxxxxxxxxxxxxxxxxxxxxxxxxxxxxxxxxxxxxxxxxxxxxxxxxxxxxxxxxxxxxxxxxxxxxxxxxxxxxxxxxxxxxxxxxxxxxxxxxxxxxxxxxxxxxxxxxxxxxxxxxxxxxxxxxxxxxxxxxxxxxxxxxxxxxxxxxxxxxxxxxxxxxxxxxxxxxxxxxxxxxxxxxxxxxxxxxxxxxxxxxxxxxxx z"
bxxxxx I
b0000000000000000000000000000000000000000000000000000000000000000000000000000000000000000000000000000000000000000000000000000000000000000000000000000000000000000000000000000000000000000000000000000000000000000000000000000000000000000000000000000000000110000 -"
b011110 o"
b00000000000000000000000111110100 >
x""
b010011 d"
bxxxxxxxxxxxxxxxxxxxxxxxxxxxxxxxxxxxxxxxxxxxxxxxxxxxxxxxxxxxxxxxx 3
b00001000 u
b001000 Y"
bxx (
xj
1N"
b000010000000 2#
bxxxxxxxxxxxxxxxx _
b00011 C"
b00111 D"
b00000000000000000000000100000000 (#
b00000000000000000000000001000000 U
b0011100000111001 9"
bxxx {"
xJ
b0000000000000000000000000000000000000000000000000000000000000001 ."
b011111 p"
b00000000000000000000000000000000 ?
bxxxxxxxxxxxxxxxxxxxxxxxxxxxxxxxxxxxxxxxxxxxxxxxxxxxxxxxxxxxxxxxxxxxxxxxxxxxxxxxxxxxxxxxxxxxxxxxxxxxxxxxxxxxxxxxxxxxxxxxxxxxxxxxxxxxxxxxxxxxxxxxxxxxxxxxxxxxxxxxxxxxxxxxxxxxxxxxxxxxxxxxxxxxxxxxxxxxxxxxxxxxxxxxxxxxxxxxxxxxxxxxxxxxxxxxxxxxxxxxxxxxxxxxxxxxxxxxx #"
b010100 e"
bxxxxxxxxxxxxxxxxxxxxxxxxxxxxxxxxxxxxxxxxxxxxxxxxxxxxxxxxxxxxxxxx 4
b00010000 v
b001001 Z"
bxxxxxxxx )
bxxxxxxxx k
b00000000000000000000000100000000 O"
b000100000000 3#
bxxxxxxxx `
b001000000000 4#
bxxxxxxxxxxxxxxxxxxxxxxxxxxxxxxxxxxxxxxxxxxxxxxxxxxxxxxxxxxxxxxxx a
b00011 E"
b00000000000000000000000000000101 )#
b00000000000000000000000000000101 V
b001110000011000000110001 :"
b00000000 |"
xK
b0000000000000000000000000000000000000000000000000000000000000000000000000000000000000000000000000000000000000000000000000000000000000000000000000000000000000000000000000000000000000000000000000000000000000000000000000000000000000000001100010011001000110011 /"
b100000 q"
x@
x$"
b010101 f"
x5
b00100000 w
b001010 ["
bxxxxxxxxxxxxxxxx *
bxxxxxxxx l
b00000000000000000000000001000000 P"
$end
#1
0"
#2
b0000000000000000000000000000000000000000000000000000000000000000 b
b00 W
0}"
0L
b0000000000000000000000000000000000000000000000000000000000000000000000000000000000000000000000000000000000000000000000000000000000000000000000000000000000000000000000000000000000000000000000000000000000000000000000000000000000000000000000000000000000000000 A
b0000000000000000000000000000000000000000000000000000000000000000 %"
b000 6
b000 m
b000000 G"
b00000000 X
0~"
b00000000000000000000000000000000 M
b0000000000000000000000000000000000000000000000000000000000000000000000000000000000000000000000000000000000000000000000000000000000000000000000000000000000000000000000000000000000000000000000000000000000000000000000000000000000000000000000000000000000000000 B
b00000 &"
b000 7
b000000 H"
b0000000000000000 Y
0!#
b0000000000000000000000000000000000000000000000000000000000000000000000000000000000000000000000000000000000000000000000000000000000000000000000000000000000000000000000000000000000000000000000000000000000000000000000000000000000000000000000000000000000000000 N
b0000000000000000000000000000000000000000000000000000000000000000000000000000000000000000000000000000000000000000000000000000000000000000000000000000000000000000000000000000000000000000000000000000000000000000000000000000000000000000000000000000000000000000 C
0'"
08
1#
b0000000000000000 Z
0"#
b000 O
b0000000000000000000000000000000000000000000000000000000000000000000000000000000000000000000000000000000000000000000000000000000000000000000000000000000000000000000000000000000000000000000000000000000000000000000000000000000000000000000000000000000000000000 D
0("
09
0:
0$
b000000 [
b000000000001 ##
0P
b0000000000000000000000000000000000000000000000000000000000000000 E
0;
0%
b000000 \
b000000000001 $#
0Q
b0000000000000000000000000000000000000000000000000000000000000000 F
0<
0h
b0000000000000000000000000000000000000000000000000000000000000000000000000000000000000000000000000000000000000000000000000000000000000000000000000000000000000000000000000000000000000000000000000000000000000000000000000000000000000000000000000000000000000000 ]
0R
b0000000000000000000000000000000000000000000000000000000000000000 H
b00000000 =
b00000000000000000000000000000000 !"
b000 i
b0000000000000000000000000000000000000000000000000000000000000000000000000000000000000000000000000000000000000000000000000000000000000000000000000000000000000000000000000000000000000000000000000000000000000000000000000000000000000000000000000000000000000000 ^
0S
b00000000000000000000000000000000 '#
b00000 I
0""
0j
b0000000000000000 _
0J
b0000000000000000000000000000000000000000000000000000000000000000000000000000000000000000000000000000000000000000000000000000000000000000000000000000000000000000000000000000000000000000000000000000000000000000000000000000000000000000000000000000000000000000 #"
b00000001 k
b00000000 `
b0000000000000000000000000000000000000000000000000000000000000000 a
0K
0@
0$"
05
b00000001 l
1"
#3
0"
#4
0#
1%
1"
#5
0"
#6
0%
1"
#7
0"
#8
b1111111111111111 +
b100100 ,
b100100 -
b0000000000000000000000000000000000000000000000000000000000000000000000000000000000000000000000000000000000000000000000000000000000000000000000000000000000000000000000000000000000000000000000000000000000000000011000110110110001101001011001010110111001110100 .
b0000000000000000000000000000000000000000000000000000000000000000000000000000000000000000000000000000000000000000000000000000000000000000000000000000000000000000000000000000000001101111011100100110010001100101011100100110110101100001011101000110001101101000 /
b0000000000001111 0
b00110001 1
b0000000000000000000000000000000000000000000000000000000000111111 2
b0000000000000000000000000000000000000000000000000000001111111111 3
b01 (
b0000000000000000000000000000000000000000000000000000000000000001 4
b01110111 )
b1111111111111111 *
1$
1h
1@
b00000010 l
1"
#9
0"
#10
b0000000000000000000000000000000000000000000000000000000000000001 c
b0000000000000000000000000000000000000000000000000000000000000001 G
b0000000000000000000000000000000000000000000000000000001111111111 b
b01 W
b0000000000000000000000000000000000000000000000000000000000000000000000000000000000000000000000000000000000000000000000000000000000000000000000000000000000000000000000000000000000000000000000000000000000000000000000000000000000000000000000000000000000100100 A
b01110111 X
b0000000000000000000000000000000000000000000000000000000000000000000000000000000000000000000000000000000000000000000000000000000000000000000000000000000000000000000000000000000000000000000000000000000000000000011000110110110001101001011001010110111001110100 B
b1111111111111111 Y
b0000000000000000000000000000000000000000000000000000000000000000000000000000000000000000000000000000000000000000000000000000000000000000000000000000000000000000000000000000000001101111011100100110010001100101011100100110110101100001011101000110001101101000 C
b1111111111111111 Z
b0000000000000000000000000000000000000000000000000000000000000000000000000000000000000000000000000000000000000000000000000000000000000000000000000000000000000000000000000000000000000000000000000000000000000000000000000000000000000000000000000000000000110001 D
b100100 [
b0000000000000000000000000000000000000000000000000000000000111111 E
b100100 \
b0000000000000000000000000000000000000000000000000000001111111111 F
b0000000000000000000000000000000000000000000000000000000000000000000000000000000000000000000000000000000000000000000000000000000000000000000000000000000000000000000000000000000000000000000000000000000000000000011000110110110001101001011001010110111001110100 ]
b0000000000000000000000000000000000000000000000000000000000000000000000000000000000000000000000000000000000000000000000000000000000000000000000000000000000000000000000000000000001101111011100100110010001100101011100100110110101100001011101000110001101101000 ^
b0000000000001111 _
b00000010 k
b00110001 `
b0000000000000000000000000000000000000000000000000000000000111111 a
0$
b00000010 l
1"
#11
0"
#12
19
1%
b00000100 l
1"
#13
0"
#14
b00000100 k
0%
b00000100 l
1"
#15
0"
#16
b00000 %#
1'
b001 m
b00000000000000000000000000111000 M
b00001 &"
b000001 H"
b001 O
1P
b000000000010 $#
b00111000 =
b00000000000000000000000000111000 !"
b001 i
b00000000000000000000000000000001 '#
b00001 I
1""
1j
1J
b00001000 l
1"
#17
0"
