tb/waveform.vcd
$timescale
 1s
$end

$scope module parser_test $end
$var reg        1 "    clk $end
$var reg        1 #    rst $end
$var reg        8 $    data_i [7:0] $end
$var reg       32 %    tag_o [31:0] $end
$var reg      256 &    value_o [255:0] $end
$var reg        1 '    end_of_body_o $end
$var reg        1 (    start_of_header_o $end
$var reg        1 )    t_wr_cs_o $end
$var reg        1 *    t_wr_en_o $end
$var reg        1 +    v_wr_cs_o $end
$var reg        1 ,    v_wr_en_o $end
$var reg       32 -    data [31:0] $end
$var reg        1 .    empty_o $end
$var reg        1 /    full_o $end

$scope begin unnamed$$_0 $end
$var reg      1184 0    data [1183:0] $end
$var integer   32 1    temp [31:0] $end
$var integer   32 2    i [31:0] $end
$upscope $end

$scope module dut $end
$var wire       1 "    clk $end
$var wire       1 #    rst $end
$var wire       8 $    data_i [7:0] $end
$var wire       1 3    end_of_body_o $end
$var wire       1 4    start_of_header_o $end
$var wire       1 5    empty_o $end
$var wire       1 6    full_o $end
$var wire       8 7    data [7:0] $end
$var wire       1 8    tag_s $end
$var wire       1 9    value_s $end
$var wire       1 :    t_wr_cs $end
$var wire       1 ;    t_wr_en $end
$var wire       1 <    v_wr_cs $end
$var wire       1 =    v_wr_en $end
$var wire      32 >    tag [31:0] $end
$var wire     256 ?    value [255:0] $end
$var wire       3 @    soh_t [2:0] $end
$var wire       3 A    sep_t [2:0] $end
$var wire       1 B    tag_status_t_1 $end
$var wire       1 C    body_status_t_1 $end
$var wire       1 D    tag_status_t_2 $end
$var wire       1 E    body_status_t_2 $end

$scope module parser $end
$var wire       1 "    clk $end
$var wire       1 #    rst $end
$var wire       8 $    data_i [7:0] $end
$var wire       8 7    data_o [7:0] $end
$var wire       1 8    tag_s_o $end
$var wire       1 F    tag_e_o $end
$var wire       1 9    value_s_o $end
$var wire       1 G    value_e_o $end
$var reg        2 H    state [1:0] $end
$var reg        2 I    next_state [1:0] $end
$var reg        8 J    data [7:0] $end
$var reg        1 K    tag_s $end
$var reg        1 L    tag_e $end
$var reg        1 M    value_s $end
$var reg        1 N    value_e $end
$var reg        8 O    soh_c [7:0] $end
$var reg        8 P    sep_c [7:0] $end
$var parameter   2 Q    initial_s [1:0] $end
$var parameter   2 R    tag [1:0] $end
$var parameter   2 S    value [1:0] $end
$upscope $end

$scope module out_module $end
$var wire       1 "    clk $end
$var wire       1 #    rst $end
$var wire       8 7    data_i [7:0] $end
$var wire       1 8    start_tag_i $end
$var wire       1 9    start_value_i $end
$var wire       1 :    t_wr_cs_o $end
$var wire       1 ;    t_wr_en_o $end
$var wire       1 <    v_wr_cs_o $end
$var wire       1 =    v_wr_en_o $end
$var wire      32 >    tag_o [31:0] $end
$var wire     256 ?    value_o [255:0] $end
$var wire       1 3    end_of_body_o $end
$var wire       1 4    start_of_header_o $end
$var reg        3 T    state [2:0] $end
$var reg        3 U    next_state [2:0] $end
$var reg        1 V    t_wr_cs $end
$var reg        1 W    t_wr_en $end
$var reg        1 X    v_wr_cs $end
$var reg        1 Y    v_wr_en $end
$var reg       32 Z    tag [31:0] $end
$var reg      256 [    value [255:0] $end
$var reg        1 \    end_of_body $end
$var reg        1 ]    start_of_header $end
$var reg        8 ^    first_tag [7:0] $end
$var reg       16 _    last_tag [15:0] $end
$var reg        1 `    last_tag_valid $end
$var reg        1 a    incr_i $end
$var parameter   3 b    state0 [2:0] $end
$var parameter   3 c    state1 [2:0] $end
$var parameter   3 d    state2 [2:0] $end
$var parameter   3 e    state3 [2:0] $end
$var parameter   3 f    state4 [2:0] $end
$var parameter   3 g    state5 [2:0] $end
$upscope $end

$scope module tag_fifo $end
$var wire       1 "    clk $end
$var wire       1 #    rst $end
$var wire       1 :    wr_cs_i $end
$var wire       1 h    rd_cs_i $end
$var wire      32 >    data_i [31:0] $end
$var wire       1 i    rd_en_i $end
$var wire       1 ;    wr_en_i $end
$var wire      32 j    data_o [31:0] $end
$var wire       1 5    empty_o $end
$var wire       1 6    full_o $end
$var wire       8 k    address_0_ram [7:0] $end
$var wire       8 l    address_1_ram [7:0] $end
$var wire      32 m    data_ram_t [31:0] $end
$var wire       8 n    status_cnt [7:0] $end
$var wire       1 o    empty $end
$var wire       1 p    full $end
$var parameter  32 q    DATA_WIDTH [31:0] $end
$var parameter  32 r    ADDR_WIDTH [31:0] $end
$var parameter  32 s    RAM_DEPTH [31:0] $end

$scope module tag_fifo_ram $end
$var wire       1 t    clk $end
$var wire       8 k    address_0 [7:0] $end
$var wire      32 >    data_0 [31:0] $end
$var wire       1 :    cs_0 $end
$var wire       1 ;    we_0 $end
$var wire       1 u    oe_0 $end
$var wire       8 l    address_1 [7:0] $end
$var wire      32 m    data_1 [31:0] $end
$var wire       1 v    cs_1 $end
$var wire       1 w    we_1 $end
$var wire       1 x    oe_1 $end
$var reg       32 y    data_0_out [31:0] $end
$var reg       32 z    data_1_out [31:0] $end
$var parameter  32 {    ADDR_WIDTH [31:0] $end
$var parameter  32 |    DATA_0_WIDTH [31:0] $end
$var parameter  32 }    RAM_DEPTH [31:0] $end
$upscope $end

$scope module tag_fifo_1 $end
$var wire       1 "    clk $end
$var wire       1 #    rst $end
$var wire       1 :    wr_cs_i $end
$var wire       1 ~    rd_cs_i $end
$var wire      32 >    data_i [31:0] $end
$var wire       1 !"   rd_en_i $end
$var wire       1 ;    wr_en_i $end
$var wire      32 m    data_ram_i [31:0] $end
$var wire       8 k    wr_pointer_o [7:0] $end
$var wire       8 l    rd_pointer_o [7:0] $end
$var wire       8 n    status_cnt_o [7:0] $end
$var wire      32 j    data_out_o [31:0] $end
$var reg        8 ""   wr_pointer [7:0] $end
$var reg        8 #"   rd_pointer [7:0] $end
$var reg        8 $"   status_cnt [7:0] $end
$var reg       32 %"   data_out [31:0] $end
$var reg       32 &"   data_ram [31:0] $end
$var parameter  32 '"   DATA_WIDTH [31:0] $end
$var parameter  32 ("   ADDR_WIDTH [31:0] $end
$var parameter  32 )"   RAM_DEPTH [31:0] $end
$upscope $end
$upscope $end

$scope module value_fifo $end
$var wire       1 "    clk $end
$var wire       1 #    rst $end
$var wire       1 <    wr_cs_i $end
$var wire       1 *"   rd_cs_i $end
$var wire     256 ?    data_i [255:0] $end
$var wire       1 +"   rd_en_i $end
$var wire       1 =    wr_en_i $end
$var wire     256 ,"   data_o [255:0] $end
$var wire       1 5    empty_o $end
$var wire       1 6    full_o $end
$var wire       8 -"   address_0_ram [7:0] $end
$var wire       8 ."   address_1_ram [7:0] $end
$var wire     256 /"   data_ram_t [255:0] $end
$var wire       8 0"   status_cnt [7:0] $end
$var wire       1 1"   empty $end
$var wire       1 2"   full $end
$var parameter  32 3"   DATA_WIDTH [31:0] $end
$var parameter  32 4"   ADDR_WIDTH [31:0] $end
$var parameter  32 5"   RAM_DEPTH [31:0] $end

$scope module value_fifo_ram $end
$var wire       1 6"   clk $end
$var wire       8 -"   address_0 [7:0] $end
$var wire     256 ?    data_0 [255:0] $end
$var wire       1 <    cs_0 $end
$var wire       1 =    we_0 $end
$var wire       1 7"   oe_0 $end
$var wire       8 ."   address_1 [7:0] $end
$var wire     256 /"   data_1 [255:0] $end
$var wire       1 8"   cs_1 $end
$var wire       1 9"   we_1 $end
$var wire       1 :"   oe_1 $end
$var reg      256 ;"   data_0_out [255:0] $end
$var reg      256 <"   data_1_out [255:0] $end
$var parameter  32 ="   ADDR_WIDTH [31:0] $end
$var parameter  32 >"   DATA_0_WIDTH [31:0] $end
$var parameter  32 ?"   RAM_DEPTH [31:0] $end
$upscope $end

$scope module value_fifo_1 $end
$var wire       1 "    clk $end
$var wire       1 #    rst $end
$var wire       1 <    wr_cs_i $end
$var wire       1 @"   rd_cs_i $end
$var wire     256 ?    data_i [255:0] $end
$var wire       1 A"   rd_en_i $end
$var wire       1 =    wr_en_i $end
$var wire     256 /"   data_ram_i [255:0] $end
$var wire       8 -"   wr_pointer_o [7:0] $end
$var wire       8 ."   rd_pointer_o [7:0] $end
$var wire       8 0"   status_cnt_o [7:0] $end
$var wire     256 ,"   data_out_o [255:0] $end
$var reg        8 B"   wr_pointer [7:0] $end
$var reg        8 C"   rd_pointer [7:0] $end
$var reg        8 D"   status_cnt [7:0] $end
$var reg      256 E"   data_out [255:0] $end
$var reg      256 F"   data_ram [255:0] $end
$var parameter  32 G"   DATA_WIDTH [31:0] $end
$var parameter  32 H"   ADDR_WIDTH [31:0] $end
$var parameter  32 I"   RAM_DEPTH [31:0] $end
$upscope $end
$upscope $end
$upscope $end
$upscope $end
$enddefinitions $end
#0
$dumpvars
b000 b
bxxxxxxxxxxxxxxxxxxxxxxxxxxxxxxxxxxxxxxxxxxxxxxxxxxxxxxxxxxxxxxxxxxxxxxxxxxxxxxxxxxxxxxxxxxxxxxxxxxxxxxxxxxxxxxxxxxxxxxxxxxxxxxxxxxxxxxxxxxxxxxxxxxxxxxxxxxxxxxxxxxxxxxxxxxxxxxxxxxxxxxxxxxxxxxxxxxxxxxxxxxxxxxxxxxxxxxxxxxxxxxxxxxxxxxxxxxxxxxxxxxxxxxxxxxxxxxxx F"
xW
bxxxxxxxxxxxxxxxxxxxxxxxxxxxxxxxxxxxxxxxxxxxxxxxxxxxxxxxxxxxxxxxxxxxxxxxxxxxxxxxxxxxxxxxxxxxxxxxxxxxxxxxxxxxxxxxxxxxxxxxxxxxxxxxxxxxxxxxxxxxxxxxxxxxxxxxxxxxxxxxxxxxxxxxxxxxxxxxxxxxxxxxxxxxxxxxxxxxxxxxxxxxxxxxxxxxxxxxxxxxxxxxxxxxxxxxxxxxxxxxxxxxxxxxxxxxxxxxx ;"
xL
bxxxxxxxx 0"
bzzz A
bxxxxxxxxxxxxxxxxxxxxxxxxxxxxxxxx %"
x6
0x
x+
b000000000000000000000000zzzzzzzz m
bxxxxxxxx n
b001 c
b00000000000000000000000100000000 G"
xX
bxxxxxxxxxxxxxxxxxxxxxxxxxxxxxxxxxxxxxxxxxxxxxxxxxxxxxxxxxxxxxxxxxxxxxxxxxxxxxxxxxxxxxxxxxxxxxxxxxxxxxxxxxxxxxxxxxxxxxxxxxxxxxxxxxxxxxxxxxxxxxxxxxxxxxxxxxxxxxxxxxxxxxxxxxxxxxxxxxxxxxxxxxxxxxxxxxxxxxxxxxxxxxxxxxxxxxxxxxxxxxxxxxxxxxxxxxxxxxxxxxxxxxxxxxxxxxxxx <"
xM
z1"
zB
bxxxxxxxxxxxxxxxxxxxxxxxxxxxxxxxx &"
bxxxxxxxx 7
bxxxxxxxxxxxxxxxxxxxxxxxxxxxxxxxx y
x,
bxxxxxxxxxxxxxxxxxxxxxxxxxxxxxxxx -
zo
0"
b010 d
b00000000000000000000000000001000 H"
xY
b00000000000000000000000000001000 ="
xN
z2"
zC
b00000000000000000000000000100000 '"
x8
bxxxxxxxxxxxxxxxxxxxxxxxxxxxxxxxx z
b00000000000000000000000000001000 {
x.
zp
x#
b011 e
b00000000000000000000000100000000 I"
bxxxxxxxxxxxxxxxxxxxxxxxxxxxxxxxx Z
b00000000000000000000000100000000 >"
b01111100 O
b00000000000000000000000100000000 3"
zD
b00000000000000000000000000001000 ("
x9
x:
b00000000000000000000000000100000 |
x/
b00000000000000000000000000100000 q
bxxxxxxxx $
b100 f
bxxxxxxxxxxxxxxxxxxxxxxxxxxxxxxxxxxxxxxxxxxxxxxxxxxxxxxxxxxxxxxxxxxxxxxxxxxxxxxxxxxxxxxxxxxxxxxxxxxxxxxxxxxxxxxxxxxxxxxxxxxxxxxxxxxxxxxxxxxxxxxxxxxxxxxxxxxxxxxxxxxxxxxxxxxxxxxxxxxxxxxxxxxxxxxxxxxxxxxxxxxxxxxxxxxxxxxxxxxxxxxxxxxxxxxxxxxxxxxxxxxxxxxxxxxxxxxxx [
b00000000000000000000000100000000 ?"
b00111101 P
b00000000000000000000000000001000 4"
zE
b00000000000000000000000100000000 )"
0*"
x;
b00000000000000000000000100000000 }
b00000000000000000000000000000000000000000000000000000000000000000000000000000000000000000000000000000000000000000000000000000000000000000000000000000000000000000000000000000000000000000000000000000000000000000000000000000000000000000000000000000000000000000000000000000000000000000000000000000000000000000000000000000000000000000000000000000000000000000000000000000000000000000000000000000000000000000000000000000000000000000000000000000000000000000000000000000000000000000000000000000000000000000000000000000000000000000000000001111100001110000011110101000110010010010101100000101110001101000010111000110010011111000011100100111101001100010011011100111000011111000011001100110101001111010011100001111100001101000011100100111101010100000100100001001100010110000111110000110101001100100011110100110010001100000011000000110111001100010011000100110010001100110010110100110000001101010011101000110011001100000011101000110000001100000010111000110000001100000011000001111100001100010011000100111101010000010101010001001111010011010100111001001111010000110100001101000011001110010011100100111001001100000011100100110000001100000111110000110001001100000011110100110001001100100011100001111100 0
b00000000000000000000000000001000 r
bxxxxxxxxxxxxxxxxxxxxxxxxxxxxxxxx %
b101 g
x\
0@"
b00 Q
b00000000000000000000000100000000 5"
xF
xG
0+"
x<
0~
b00000000000000000000000010100100 1
b00000000000000000000000100000000 s
bxxxxxxxxxxxxxxxxxxxxxxxxxxxxxxxxxxxxxxxxxxxxxxxxxxxxxxxxxxxxxxxxxxxxxxxxxxxxxxxxxxxxxxxxxxxxxxxxxxxxxxxxxxxxxxxxxxxxxxxxxxxxxxxxxxxxxxxxxxxxxxxxxxxxxxxxxxxxxxxxxxxxxxxxxxxxxxxxxxxxxxxxxxxxxxxxxxxxxxxxxxxxxxxxxxxxxxxxxxxxxxxxxxxxxxxxxxxxxxxxxxxxxxxxxxxxxxxx &
0h
x]
0A"
b01 R
z6"
07"
bxx H
bxxxxxxxxxxxxxxxxxxxxxxxxxxxxxxxxxxxxxxxxxxxxxxxxxxxxxxxxxxxxxxxxxxxxxxxxxxxxxxxxxxxxxxxxxxxxxxxxxxxxxxxxxxxxxxxxxxxxxxxxxxxxxxxxxxxxxxxxxxxxxxxxxxxxxxxxxxxxxxxxxxxxxxxxxxxxxxxxxxxxxxxxxxxxxxxxxxxxxxxxxxxxxxxxxxxxxxxxxxxxxxxxxxxxxxxxxxxxxxxxxxxxxxxxxxxxxxxx ,"
x=
0!"
b00000000000000000000000000000000 2
zt
x'
0i
b00111000 ^
bxxxxxxxx B"
b10 S
bxxx T
08"
bxx I
bxxxxxxxx -"
bxxxxxxxxxxxxxxxxxxxxxxxxxxxxxxxx >
bxxxxxxxx ""
x3
0u
x(
bxxxxxxxxxxxxxxxxxxxxxxxxxxxxxxxx j
b0011000100110000 _
bxxxxxxxx C"
bxxxxxxxx D"
bxxx U
09"
bxxxxxxxx J
bxxxxxxxx ."
bxxxxxxxxxxxxxxxxxxxxxxxxxxxxxxxxxxxxxxxxxxxxxxxxxxxxxxxxxxxxxxxxxxxxxxxxxxxxxxxxxxxxxxxxxxxxxxxxxxxxxxxxxxxxxxxxxxxxxxxxxxxxxxxxxxxxxxxxxxxxxxxxxxxxxxxxxxxxxxxxxxxxxxxxxxxxxxxxxxxxxxxxxxxxxxxxxxxxxxxxxxxxxxxxxxxxxxxxxxxxxxxxxxxxxxxxxxxxxxxxxxxxxxxxxxxxxxxx ?
bxxxxxxxx #"
x4
0v
x)
bxxxxxxxx k
0`
xa
bxxxxxxxxxxxxxxxxxxxxxxxxxxxxxxxxxxxxxxxxxxxxxxxxxxxxxxxxxxxxxxxxxxxxxxxxxxxxxxxxxxxxxxxxxxxxxxxxxxxxxxxxxxxxxxxxxxxxxxxxxxxxxxxxxxxxxxxxxxxxxxxxxxxxxxxxxxxxxxxxxxxxxxxxxxxxxxxxxxxxxxxxxxxxxxxxxxxxxxxxxxxxxxxxxxxxxxxxxxxxxxxxxxxxxxxxxxxxxxxxxxxxxxxxxxxxxxxx E"
xV
0:"
xK
b00000000000000000000000000000000000000000000000000000000000000000000000000000000000000000000000000000000000000000000000000000000000000000000000000000000000000000000000000000000000000000000000000000000000000000000000000000000000000000000000000000000zzzzzzzz /"
bzzz @
bxxxxxxxx $"
x5
0w
x*
bxxxxxxxx l
$end
#2
0W
b00000000 0"
b00000000000000000000000000000000 %"
06
b00000000 n
0X
0M
b00000000 7
1"
0Y
08
1.
1#
b00000000000000000000000000000000 Z
09
0:
0/
b0000000000000000000000000000000000000000000000000000000000000000000000000000000000000000000000000000000000000000000000000000000000000000000000000000000000000000000000000000000000000000000000000000000000000000000000000000000000000000000000000000000000000000 [
0;
0\
0<
0]
b00 H
b0000000000000000000000000000000000000000000000000000000000000000000000000000000000000000000000000000000000000000000000000000000000000000000000000000000000000000000000000000000000000000000000000000000000000000000000000000000000000000000000000000000000000000 ,"
0=
0'
b00000000 B"
b000 T
b00 I
b00000000 -"
b00000000000000000000000000000000 >
b00000000 ""
03
0(
b00000000000000000000000000000000 j
b00000000 C"
b00000000 D"
b000 U
b00000000 J
b00000000 ."
b0000000000000000000000000000000000000000000000000000000000000000000000000000000000000000000000000000000000000000000000000000000000000000000000000000000000000000000000000000000000000000000000000000000000000000000000000000000000000000000000000000000000000000 ?
b00000000 #"
04
b00000000 k
b0000000000000000000000000000000000000000000000000000000000000000000000000000000000000000000000000000000000000000000000000000000000000000000000000000000000000000000000000000000000000000000000000000000000000000000000000000000000000000000000000000000000000000 E"
0V
0K
b00000000 $"
15
b00000000 l
#3
0"
#4
1"
#5
0"
#6
0#
1"
#7
0"
#8
b00000000000000000000000010100011 1
b00000000000000000000000000000001 2
1"
#9
0"
#10
b00000000000000000000000010100010 1
b00000000000000000000000000000010 2
1"
#11
0"
#12
b00000000000000000000000010100001 1
b00000000000000000000000000000011 2
1"
#13
0"
#14
b00000000000000000000000010100000 1
b00000000000000000000000000000100 2
1"
#15
0"
#16
b00000000000000000000000010011111 1
b00000000000000000000000000000101 2
1"
#17
0"
#18
b00000000000000000000000010011110 1
b00000000000000000000000000000110 2
1"
#19
0"
#20
b00000000000000000000000010011101 1
b00000000000000000000000000000111 2
1"
#21
0"
#22
b00000000000000000000000010011100 1
b00000000000000000000000000001000 2
1"
#23
0"
#24
b00000000000000000000000010011011 1
b00000000000000000000000000001001 2
1"
#25
0"
#26
b00000000000000000000000010011010 1
b00000000000000000000000000001010 2
1"
#27
0"
#28
b00000000000000000000000010011001 1
b00000000000000000000000000001011 2
1"
#29
0"
#30
b00000000000000000000000010011000 1
b00000000000000000000000000001100 2
1"
#31
0"
#32
b00000000000000000000000010010111 1
b00000000000000000000000000001101 2
1"
#33
0"
#34
b00000000000000000000000010010110 1
b00000000000000000000000000001110 2
1"
#35
0"
#36
b00000000000000000000000010010101 1
b00000000000000000000000000001111 2
1"
#37
0"
#38
b00000000000000000000000010010100 1
b00000000000000000000000000010000 2
1"
#39
0"
#40
b00000000 $
b00000000000000000000000010010011 1
b00000000000000000000000000010001 2
1"
#41
0"
#42
b00000000000000000000000010010010 1
b00000000000000000000000000010010 2
1"
#43
0"
#44
b00000000000000000000000010010001 1
b00000000000000000000000000010011 2
1"
#45
0"
#46
b00000000000000000000000010010000 1
b00000000000000000000000000010100 2
1"
#47
0"
#48
b00000000000000000000000010001111 1
b00000000000000000000000000010101 2
1"
#49
0"
#50
b00000000000000000000000010001110 1
b00000000000000000000000000010110 2
1"
#51
0"
#52
b00000000000000000000000010001101 1
b00000000000000000000000000010111 2
1"
#53
0"
#54
b00000000000000000000000010001100 1
b00000000000000000000000000011000 2
1"
#55
0"
#56
b00000000000000000000000010001011 1
b00000000000000000000000000011001 2
1"
#57
0"
#58
b00000000000000000000000010001010 1
b00000000000000000000000000011010 2
1"
#59
0"
#60
b00000000000000000000000010001001 1
b00000000000000000000000000011011 2
1"
#61
0"
#62
b00000000000000000000000010001000 1
b00000000000000000000000000011100 2
1"
#63
0"
#64
b00000000000000000000000010000111 1
b00000000000000000000000000011101 2
1"
#65
0"
#66
b00000000000000000000000010000110 1
b00000000000000000000000000011110 2
1"
#67
0"
#68
b00000000000000000000000010000101 1
b00000000000000000000000000011111 2
1"
#69
0"
#70
b00000000000000000000000010000100 1
b00000000000000000000000000100000 2
1"
#71
0"
#72
b00000000000000000000000010000011 1
b00000000000000000000000000100001 2
1"
#73
0"
#74
b00000000000000000000000010000010 1
b00000000000000000000000000100010 2
1"
#75
0"
#76
b00000000000000000000000010000001 1
b00000000000000000000000000100011 2
1"
#77
0"
#78
b00000000000000000000000010000000 1
b00000000000000000000000000100100 2
1"
#79
0"
#80
b00000000000000000000000001111111 1
b00000000000000000000000000100101 2
1"
#81
0"
#82
b00000000000000000000000001111110 1
b00000000000000000000000000100110 2
1"
#83
0"
#84
b00000000000000000000000001111101 1
b00000000000000000000000000100111 2
1"
#85
0"
#86
b00000000000000000000000001111100 1
b00000000000000000000000000101000 2
1"
#87
0"
#88
b00000000000000000000000001111011 1
b00000000000000000000000000101001 2
1"
#89
0"
#90
b00000000000000000000000001111010 1
b00000000000000000000000000101010 2
1"
#91
0"
#92
b00000000000000000000000001111001 1
b00000000000000000000000000101011 2
1"
#93
0"
#94
b00000000000000000000000001111000 1
b00000000000000000000000000101100 2
1"
#95
0"
#96
b00000000000000000000000001110111 1
b00000000000000000000000000101101 2
1"
#97
0"
#98
b00000000000000000000000001110110 1
b00000000000000000000000000101110 2
1"
#99
0"
#100
b00000000000000000000000001110101 1
b00000000000000000000000000101111 2
1"
#101
0"
#102
b00000000000000000000000001110100 1
b00000000000000000000000000110000 2
1"
#103
0"
#104
b00000000000000000000000001110011 1
b00000000000000000000000000110001 2
1"
#105
0"
#106
b00000000000000000000000001110010 1
b00000000000000000000000000110010 2
1"
#107
0"
#108
b00000000000000000000000001110001 1
b00000000000000000000000000110011 2
1"
#109
0"
#110
b00000000000000000000000001110000 1
b00000000000000000000000000110100 2
1"
#111
0"
#112
b00000000000000000000000001101111 1
b00000000000000000000000000110101 2
1"
#113
0"
#114
b00000000000000000000000001101110 1
b00000000000000000000000000110110 2
1"
#115
0"
#116
b00000000000000000000000001101101 1
b00000000000000000000000000110111 2
1"
#117
0"
#118
b00000000000000000000000001101100 1
b00000000000000000000000000111000 2
1"
#119
0"
#120
b00000000000000000000000001101011 1
b00000000000000000000000000111001 2
1"
#121
0"
#122
b00000000000000000000000001101010 1
b00000000000000000000000000111010 2
1"
#123
0"
#124
b00000000000000000000000001101001 1
b00000000000000000000000000111011 2
1"
#125
0"
#126
b00000000000000000000000001101000 1
b00000000000000000000000000111100 2
1"
#127
0"
#128
b00000000000000000000000001100111 1
b00000000000000000000000000111101 2
1"
#129
0"
#130
b00000000000000000000000001100110 1
b00000000000000000000000000111110 2
1"
#131
0"
#132
b00000000000000000000000001100101 1
b00000000000000000000000000111111 2
1"
#133
0"
#134
b00000000000000000000000001100100 1
b00000000000000000000000001000000 2
1"
#135
0"
#136
b00000000000000000000000001100011 1
b00000000000000000000000001000001 2
1"
#137
0"
#138
b00000000000000000000000001100010 1
b00000000000000000000000001000010 2
1"
#139
0"
#140
b00000000000000000000000001100001 1
b00000000000000000000000001000011 2
1"
#141
0"
#142
b00000000000000000000000001100000 1
b00000000000000000000000001000100 2
1"
#143
0"
#144
b00000000000000000000000001011111 1
b00000000000000000000000001000101 2
1"
#145
0"
#146
b00000000000000000000000001011110 1
b00000000000000000000000001000110 2
1"
#147
0"
#148
b00000000000000000000000001011101 1
b00000000000000000000000001000111 2
1"
#149
0"
#150
b00000000000000000000000001011100 1
b00000000000000000000000001001000 2
1"
#151
0"
#152
b00000000000000000000000001011011 1
b00000000000000000000000001001001 2
1"
#153
0"
#154
b00000000000000000000000001011010 1
b00000000000000000000000001001010 2
1"
#155
0"
#156
b00000000000000000000000001011001 1
b00000000000000000000000001001011 2
1"
#157
0"
#158
b00000000000000000000000001011000 1
b00000000000000000000000001001100 2
1"
#159
0"
#160
b00000000000000000000000001010111 1
b00000000000000000000000001001101 2
1"
#161
0"
#162
b00000000000000000000000001010110 1
b00000000000000000000000001001110 2
1"
#163
0"
#164
b00000000000000000000000001010101 1
b00000000000000000000000001001111 2
1"
#165
0"
#166
b00000000000000000000000001010100 1
b00000000000000000000000001010000 2
1"
#167
0"
#168
b00000000000000000000000001010011 1
b00000000000000000000000001010001 2
1"
#169
0"
#170
b00000000000000000000000001010010 1
b00000000000000000000000001010010 2
1"
#171
0"
#172
b01 I
b01111100 $
b00000000000000000000000001010001 1
b00000000000000000000000001010011 2
1"
#173
0"
#174
0L
0N
0F
0G
b00111000 7
18
b00000000000000000000000000111000 Z
b01 H
b00000000000000000000000000111000 >
b001 U
b00111000 J
1K
b01 I
b00111000 $
b00000000000000000000000001010000 1
b00000000000000000000000001010100 2
1"
#175
0"
#176
1W
1:
1;
1]
b001 T
1(
14
1V
1L
1F
08
b011 U
0K
b10 I
b00111101 $
b00000000000000000000000001001111 1
b00000000000000000000000001010101 2
1"
#177
0"
#178
b00000001 n
1M
x.
19
b0000000000000000000000000000000000000000000000000000000000000000000000000000000000000000000000000000000000000000000000000000000000000000000000000000000000000000000000000000000000000000000000000000000000000000000000000000000000000000000000000000000001000110 [
b00000001 ""
b0000000000000000000000000000000000000000000000000000000000000000000000000000000000000000000000000000000000000000000000000000000000000000000000000000000000000000000000000000000000000000000000000000000000000000000000000000000000000000000000000000000001000110 ?
b00000001 k
b00000001 $"
x5
b01000110 7
b00000000000000000011100001000110 Z
b10 H
b00000000000000000011100001000110 >
b01000110 J
0W
0:
0;
b011 T
0V
0L
0F
08
b100 U
0K
b10 I
b01000110 $
b00000000000000000000000001001110 1
b00000000000000000000000001010110 2
1"
#179
0"
#180
b0000000000000000000000000000000000000000000000000000000000000000000000000000000000000000000000000000000000000000000000000000000000000000000000000000000000000000000000000000000000000000000000000000000000000000000000000000000000000000000000000100011001001001 [
b0000000000000000000000000000000000000000000000000000000000000000000000000000000000000000000000000000000000000000000000000000000000000000000000000000000000000000000000000000000000000000000000000000000000000000000000000000000000000000000000000100011001001001 ?
b01001001 7
b00000000000000000000000000000000 Z
b00000000000000000000000000000000 >
b01001001 J
b100 T
b101 U
b01001001 $
b00000000000000000000000001001101 1
b00000000000000000000000001010111 2
1"
#181
0"
#182
b0000000000000000000000000000000000000000000000000000000000000000000000000000000000000000000000000000000000000000000000000000000000000000000000000000000000000000000000000000000000000000000000000000000000000000000000000000000000000000010001100100100101011000 [
b0000000000000000000000000000000000000000000000000000000000000000000000000000000000000000000000000000000000000000000000000000000000000000000000000000000000000000000000000000000000000000000000000000000000000000000000000000000000000000010001100100100101011000 ?
b01011000 7
b01011000 J
b101 T
b100 U
b01011000 $
b00000000000000000000000001001100 1
b00000000000000000000000001011000 2
1"
#183
0"
#184
b0000000000000000000000000000000000000000000000000000000000000000000000000000000000000000000000000000000000000000000000000000000000000000000000000000000000000000000000000000000000000000000000000000000000000000000000000000000001000110010010010101100000101110 [
b0000000000000000000000000000000000000000000000000000000000000000000000000000000000000000000000000000000000000000000000000000000000000000000000000000000000000000000000000000000000000000000000000000000000000000000000000000000001000110010010010101100000101110 ?
b00101110 7
b00101110 J
b100 T
b101 U
b00101110 $
b00000000000000000000000001001011 1
b00000000000000000000000001011001 2
1"
#185
0"
#186
b0000000000000000000000000000000000000000000000000000000000000000000000000000000000000000000000000000000000000000000000000000000000000000000000000000000000000000000000000000000000000000000000000000000000000000000000000100011001001001010110000010111000110100 [
b0000000000000000000000000000000000000000000000000000000000000000000000000000000000000000000000000000000000000000000000000000000000000000000000000000000000000000000000000000000000000000000000000000000000000000000000000100011001001001010110000010111000110100 ?
b00110100 7
b00110100 J
b101 T
b100 U
b00110100 $
b00000000000000000000000001001010 1
b00000000000000000000000001011010 2
1"
#187
0"
#188
b0000000000000000000000000000000000000000000000000000000000000000000000000000000000000000000000000000000000000000000000000000000000000000000000000000000000000000000000000000000000000000000000000000000000000000010001100100100101011000001011100011010000101110 [
b0000000000000000000000000000000000000000000000000000000000000000000000000000000000000000000000000000000000000000000000000000000000000000000000000000000000000000000000000000000000000000000000000000000000000000010001100100100101011000001011100011010000101110 ?
b00101110 7
b00101110 J
b100 T
b101 U
b00101110 $
b00000000000000000000000001001001 1
b00000000000000000000000001011011 2
1"
#189
0"
#190
b0000000000000000000000000000000000000000000000000000000000000000000000000000000000000000000000000000000000000000000000000000000000000000000000000000000000000000000000000000000000000000000000000000000001000110010010010101100000101110001101000010111000110010 [
b0000000000000000000000000000000000000000000000000000000000000000000000000000000000000000000000000000000000000000000000000000000000000000000000000000000000000000000000000000000000000000000000000000000001000110010010010101100000101110001101000010111000110010 ?
b00110010 7
b00110010 J
b101 T
b100 U
b00110010 $
b00000000000000000000000001001000 1
b00000000000000000000000001011100 2
1"
#191
0"
#192
1X
1Y
1<
1=
1N
1G
0M
09
b01 I
b100 T
b001 U
b01111100 $
b00000000000000000000000001000111 1
b00000000000000000000000001011101 2
1"
#193
0"
#194
b00000001 0"
b00000001 B"
b00000001 -"
b00000001 D"
0.
05
b01 H
18
1K
b00000000000000000000000000111001 Z
b00000000000000000000000000111001 >
b0000000000000000000000000000000000000000000000000000000000000000000000000000000000000000000000000000000000000000000000000000000000000000000000000000000000000000000000000000000000000000000000000000000000000000000000000000000000000000000000000000000000000000 [
b0000000000000000000000000000000000000000000000000000000000000000000000000000000000000000000000000000000000000000000000000000000000000000000000000000000000000000000000000000000000000000000000000000000000000000000000000000000000000000000000000000000000000000 ?
b00111001 7
b00111001 J
0X
0Y
0<
0=
0N
0G
0M
09
b01 I
b001 T
b010 U
b00111001 $
b00000000000000000000000001000110 1
b00000000000000000000000001011110 2
1"
#195
0"
#196
1W
1:
1;
1V
1L
1F
08
0K
b10 I
b010 T
b011 U
b00111101 $
b00000000000000000000000001000101 1
b00000000000000000000000001011111 2
1"
#197
0"
